200	12048
0	4
0	6
0	7
0	8
0	9
0	10
0	11
0	12
0	13
0	15
0	16
0	18
0	19
0	24
0	27
0	28
0	29
0	31
0	33
0	34
0	37
0	39
0	40
0	42
0	43
0	44
0	48
0	50
0	51
0	54
0	56
0	57
0	58
0	59
0	61
0	62
0	63
0	64
0	65
0	67
0	68
0	69
0	71
0	72
0	73
0	75
0	78
0	79
0	80
0	84
0	86
0	87
0	88
0	90
0	91
0	93
0	95
0	97
0	99
0	100
0	101
0	102
0	103
0	104
0	105
0	108
0	110
0	111
0	112
0	113
0	114
0	115
0	116
0	117
0	118
0	119
0	123
0	124
0	125
0	126
0	127
0	128
0	133
0	135
0	137
0	138
0	143
0	147
0	148
0	149
0	152
0	154
0	159
0	162
0	164
0	165
0	166
0	167
0	168
0	170
0	172
0	173
0	174
0	175
0	176
0	178
0	179
0	181
0	183
0	185
0	187
0	188
0	191
0	193
0	196
0	197
1	2
1	5
1	6
1	8
1	9
1	11
1	12
1	14
1	16
1	17
1	19
1	21
1	22
1	23
1	24
1	25
1	28
1	29
1	30
1	32
1	33
1	34
1	42
1	43
1	44
1	47
1	48
1	50
1	53
1	54
1	57
1	60
1	61
1	63
1	64
1	65
1	66
1	68
1	72
1	74
1	75
1	76
1	77
1	80
1	81
1	83
1	85
1	89
1	90
1	93
1	95
1	97
1	99
1	101
1	102
1	103
1	104
1	105
1	106
1	108
1	109
1	112
1	113
1	115
1	116
1	118
1	119
1	121
1	122
1	124
1	125
1	127
1	128
1	133
1	135
1	137
1	138
1	139
1	140
1	141
1	142
1	143
1	144
1	145
1	148
1	150
1	152
1	154
1	155
1	160
1	163
1	165
1	167
1	170
1	171
1	172
1	175
1	178
1	180
1	182
1	183
1	187
1	189
1	190
1	193
1	194
1	195
1	196
1	197
2	3
2	4
2	5
2	10
2	11
2	12
2	15
2	16
2	18
2	21
2	23
2	24
2	27
2	28
2	29
2	31
2	32
2	33
2	34
2	35
2	37
2	38
2	39
2	43
2	44
2	45
2	49
2	50
2	52
2	54
2	55
2	56
2	57
2	58
2	60
2	61
2	63
2	64
2	66
2	67
2	69
2	70
2	72
2	74
2	78
2	79
2	80
2	81
2	82
2	83
2	84
2	85
2	87
2	88
2	92
2	93
2	99
2	100
2	101
2	104
2	105
2	106
2	107
2	108
2	111
2	113
2	115
2	116
2	119
2	120
2	122
2	123
2	124
2	126
2	127
2	129
2	130
2	132
2	133
2	136
2	137
2	139
2	143
2	144
2	145
2	148
2	149
2	152
2	154
2	155
2	158
2	161
2	163
2	164
2	165
2	166
2	167
2	168
2	169
2	175
2	176
2	180
2	181
2	182
2	183
2	184
2	185
2	188
2	189
2	191
2	192
2	193
2	195
2	196
2	197
2	198
2	199
3	4
3	5
3	6
3	7
3	8
3	9
3	10
3	14
3	15
3	16
3	18
3	19
3	20
3	21
3	22
3	23
3	24
3	29
3	32
3	33
3	34
3	35
3	37
3	38
3	39
3	40
3	41
3	42
3	43
3	45
3	47
3	48
3	50
3	51
3	52
3	53
3	54
3	55
3	57
3	61
3	62
3	67
3	70
3	71
3	72
3	73
3	74
3	77
3	78
3	79
3	80
3	81
3	82
3	84
3	85
3	89
3	91
3	92
3	93
3	95
3	97
3	99
3	100
3	101
3	103
3	104
3	105
3	107
3	110
3	111
3	112
3	113
3	114
3	115
3	116
3	118
3	120
3	121
3	123
3	125
3	126
3	127
3	128
3	129
3	131
3	137
3	138
3	139
3	140
3	141
3	144
3	146
3	147
3	151
3	152
3	154
3	155
3	159
3	161
3	163
3	164
3	165
3	166
3	168
3	170
3	172
3	176
3	177
3	178
3	181
3	182
3	184
3	185
3	186
3	189
3	190
3	191
3	193
3	195
3	196
3	197
3	198
4	5
4	8
4	9
4	10
4	11
4	13
4	14
4	15
4	16
4	18
4	20
4	21
4	22
4	23
4	26
4	27
4	28
4	31
4	35
4	36
4	37
4	40
4	43
4	45
4	46
4	50
4	51
4	53
4	54
4	56
4	57
4	58
4	59
4	61
4	62
4	64
4	65
4	67
4	69
4	70
4	71
4	72
4	73
4	74
4	75
4	76
4	77
4	78
4	79
4	80
4	82
4	83
4	85
4	87
4	88
4	89
4	92
4	94
4	95
4	98
4	104
4	107
4	110
4	113
4	114
4	115
4	116
4	118
4	119
4	120
4	121
4	123
4	124
4	125
4	126
4	127
4	128
4	130
4	131
4	134
4	137
4	138
4	139
4	140
4	145
4	146
4	148
4	149
4	150
4	151
4	152
4	153
4	154
4	155
4	157
4	160
4	163
4	164
4	165
4	167
4	168
4	172
4	177
4	178
4	179
4	180
4	181
4	183
4	186
4	188
4	190
4	191
4	192
4	193
4	194
4	196
4	198
4	199
5	6
5	8
5	10
5	13
5	17
5	19
5	20
5	21
5	23
5	24
5	25
5	28
5	30
5	31
5	32
5	35
5	38
5	40
5	42
5	44
5	46
5	48
5	51
5	52
5	53
5	54
5	55
5	58
5	62
5	64
5	65
5	66
5	67
5	69
5	70
5	71
5	72
5	74
5	76
5	77
5	78
5	79
5	80
5	82
5	84
5	85
5	88
5	90
5	91
5	93
5	94
5	95
5	97
5	98
5	99
5	100
5	102
5	103
5	104
5	108
5	109
5	113
5	115
5	116
5	117
5	118
5	119
5	123
5	124
5	126
5	129
5	131
5	133
5	134
5	135
5	139
5	140
5	141
5	142
5	143
5	146
5	147
5	150
5	151
5	152
5	153
5	154
5	158
5	159
5	160
5	161
5	162
5	163
5	166
5	170
5	173
5	174
5	177
5	179
5	185
5	186
5	187
5	188
5	189
5	190
5	191
5	193
5	194
5	197
5	199
6	7
6	8
6	9
6	12
6	13
6	14
6	15
6	16
6	18
6	19
6	22
6	23
6	24
6	25
6	26
6	28
6	29
6	31
6	32
6	33
6	34
6	35
6	37
6	39
6	43
6	44
6	45
6	47
6	48
6	49
6	50
6	51
6	52
6	53
6	54
6	55
6	56
6	57
6	59
6	60
6	62
6	63
6	64
6	65
6	67
6	68
6	70
6	71
6	72
6	74
6	75
6	76
6	77
6	78
6	79
6	81
6	82
6	85
6	86
6	88
6	89
6	90
6	91
6	93
6	95
6	97
6	98
6	100
6	101
6	102
6	103
6	105
6	106
6	111
6	112
6	114
6	115
6	120
6	121
6	124
6	125
6	126
6	128
6	130
6	131
6	132
6	133
6	137
6	142
6	143
6	144
6	145
6	147
6	148
6	149
6	150
6	151
6	152
6	154
6	155
6	156
6	158
6	159
6	160
6	161
6	162
6	164
6	166
6	168
6	170
6	172
6	173
6	174
6	178
6	181
6	182
6	183
6	184
6	186
6	187
6	190
6	191
6	192
6	193
6	195
6	196
6	198
6	199
7	11
7	14
7	15
7	16
7	19
7	21
7	22
7	23
7	24
7	26
7	31
7	33
7	35
7	36
7	37
7	38
7	42
7	43
7	45
7	46
7	51
7	52
7	53
7	54
7	56
7	57
7	58
7	59
7	60
7	62
7	63
7	65
7	66
7	67
7	68
7	71
7	72
7	74
7	75
7	76
7	77
7	80
7	81
7	83
7	85
7	86
7	87
7	90
7	91
7	92
7	93
7	99
7	100
7	101
7	102
7	103
7	105
7	108
7	109
7	113
7	114
7	116
7	122
7	123
7	124
7	127
7	129
7	130
7	132
7	135
7	136
7	138
7	139
7	141
7	143
7	144
7	146
7	147
7	148
7	149
7	150
7	153
7	158
7	161
7	162
7	164
7	166
7	175
7	178
7	179
7	181
7	183
7	184
7	189
7	190
7	191
7	192
7	194
7	195
7	197
7	198
7	199
8	11
8	13
8	14
8	15
8	16
8	18
8	19
8	20
8	22
8	24
8	25
8	26
8	27
8	28
8	30
8	31
8	32
8	34
8	35
8	38
8	39
8	40
8	41
8	42
8	44
8	45
8	46
8	47
8	48
8	51
8	52
8	54
8	55
8	56
8	57
8	58
8	59
8	61
8	62
8	63
8	68
8	70
8	73
8	74
8	76
8	77
8	79
8	82
8	85
8	87
8	89
8	90
8	91
8	92
8	93
8	94
8	95
8	96
8	98
8	101
8	102
8	108
8	112
8	114
8	118
8	121
8	122
8	123
8	124
8	125
8	126
8	128
8	129
8	133
8	134
8	135
8	138
8	140
8	141
8	143
8	144
8	147
8	148
8	149
8	150
8	151
8	152
8	153
8	154
8	155
8	156
8	158
8	159
8	160
8	161
8	163
8	164
8	167
8	168
8	169
8	170
8	172
8	173
8	175
8	177
8	178
8	179
8	180
8	181
8	184
8	185
8	188
8	189
8	190
8	191
8	192
8	194
8	195
8	196
8	198
8	199
9	10
9	11
9	13
9	14
9	17
9	21
9	22
9	24
9	25
9	26
9	27
9	31
9	33
9	34
9	35
9	38
9	43
9	44
9	45
9	48
9	49
9	50
9	51
9	52
9	53
9	54
9	55
9	56
9	58
9	59
9	60
9	61
9	63
9	64
9	66
9	67
9	68
9	70
9	72
9	73
9	75
9	76
9	78
9	82
9	83
9	85
9	87
9	89
9	91
9	92
9	94
9	97
9	99
9	104
9	106
9	108
9	109
9	110
9	111
9	112
9	113
9	118
9	119
9	120
9	123
9	125
9	126
9	128
9	129
9	131
9	133
9	134
9	135
9	137
9	139
9	140
9	141
9	143
9	144
9	145
9	146
9	147
9	149
9	150
9	153
9	154
9	157
9	159
9	160
9	161
9	164
9	165
9	166
9	167
9	169
9	170
9	172
9	173
9	174
9	175
9	178
9	179
9	180
9	181
9	182
9	183
9	186
9	187
9	188
9	190
9	191
9	193
9	194
9	195
9	197
9	198
9	199
10	11
10	13
10	15
10	17
10	20
10	21
10	23
10	24
10	25
10	26
10	27
10	28
10	30
10	32
10	34
10	35
10	36
10	37
10	38
10	40
10	41
10	42
10	44
10	45
10	46
10	48
10	49
10	51
10	53
10	55
10	56
10	58
10	60
10	62
10	63
10	64
10	65
10	66
10	68
10	70
10	72
10	73
10	74
10	75
10	79
10	80
10	83
10	84
10	85
10	87
10	90
10	91
10	94
10	95
10	98
10	100
10	101
10	103
10	104
10	107
10	109
10	110
10	111
10	113
10	115
10	116
10	117
10	118
10	119
10	120
10	121
10	122
10	123
10	124
10	125
10	126
10	130
10	132
10	135
10	136
10	138
10	139
10	140
10	141
10	142
10	144
10	145
10	147
10	148
10	149
10	150
10	151
10	153
10	154
10	155
10	156
10	157
10	159
10	160
10	161
10	162
10	163
10	165
10	166
10	168
10	170
10	173
10	174
10	175
10	176
10	178
10	179
10	180
10	183
10	184
10	185
10	186
10	188
10	189
10	191
10	194
10	195
10	196
10	198
10	199
11	13
11	14
11	17
11	19
11	21
11	22
11	23
11	24
11	27
11	28
11	32
11	34
11	35
11	36
11	37
11	38
11	40
11	42
11	45
11	46
11	47
11	48
11	50
11	51
11	52
11	53
11	54
11	55
11	56
11	57
11	59
11	62
11	64
11	65
11	66
11	68
11	69
11	74
11	75
11	76
11	77
11	78
11	79
11	81
11	83
11	86
11	93
11	94
11	96
11	97
11	98
11	100
11	101
11	102
11	103
11	106
11	107
11	108
11	109
11	112
11	114
11	117
11	118
11	120
11	122
11	124
11	127
11	128
11	129
11	130
11	131
11	132
11	134
11	136
11	139
11	140
11	141
11	142
11	143
11	145
11	146
11	147
11	150
11	152
11	154
11	155
11	156
11	157
11	158
11	159
11	161
11	163
11	164
11	167
11	170
11	172
11	173
11	177
11	178
11	179
11	183
11	185
11	186
11	187
11	188
11	192
11	193
11	194
11	196
11	197
12	15
12	16
12	17
12	21
12	24
12	25
12	26
12	27
12	28
12	29
12	30
12	32
12	33
12	34
12	35
12	36
12	38
12	40
12	42
12	43
12	46
12	47
12	49
12	50
12	51
12	52
12	53
12	55
12	65
12	66
12	67
12	68
12	69
12	70
12	71
12	72
12	73
12	76
12	77
12	79
12	80
12	86
12	88
12	90
12	91
12	93
12	97
12	99
12	100
12	102
12	103
12	104
12	107
12	108
12	109
12	110
12	111
12	115
12	116
12	119
12	123
12	126
12	127
12	129
12	130
12	132
12	133
12	134
12	136
12	137
12	138
12	139
12	140
12	141
12	144
12	147
12	148
12	149
12	151
12	157
12	158
12	160
12	161
12	163
12	164
12	165
12	167
12	171
12	172
12	175
12	177
12	178
12	179
12	180
12	183
12	184
12	185
12	186
12	187
12	188
12	189
12	191
12	193
12	194
12	196
12	197
12	199
13	14
13	17
13	18
13	20
13	21
13	22
13	23
13	24
13	25
13	26
13	27
13	29
13	30
13	31
13	35
13	38
13	39
13	40
13	41
13	45
13	50
13	51
13	61
13	63
13	65
13	66
13	67
13	68
13	69
13	71
13	72
13	74
13	76
13	77
13	78
13	79
13	80
13	81
13	82
13	83
13	87
13	88
13	89
13	91
13	92
13	93
13	94
13	99
13	101
13	102
13	103
13	105
13	108
13	109
13	110
13	111
13	113
13	114
13	116
13	117
13	118
13	120
13	122
13	123
13	124
13	128
13	129
13	130
13	133
13	135
13	136
13	138
13	142
13	143
13	145
13	146
13	149
13	153
13	155
13	156
13	157
13	158
13	159
13	160
13	161
13	162
13	163
13	164
13	166
13	167
13	168
13	170
13	171
13	172
13	174
13	176
13	179
13	180
13	181
13	183
13	184
13	186
13	187
13	188
13	191
13	193
13	195
13	199
14	16
14	17
14	18
14	19
14	20
14	26
14	28
14	30
14	31
14	32
14	33
14	34
14	35
14	38
14	39
14	40
14	42
14	44
14	45
14	47
14	48
14	49
14	51
14	52
14	54
14	55
14	56
14	59
14	60
14	63
14	65
14	66
14	67
14	68
14	70
14	71
14	72
14	74
14	76
14	79
14	80
14	85
14	87
14	90
14	91
14	92
14	94
14	96
14	97
14	104
14	105
14	106
14	107
14	108
14	110
14	111
14	112
14	113
14	115
14	116
14	118
14	121
14	123
14	124
14	125
14	126
14	128
14	130
14	131
14	132
14	133
14	135
14	136
14	139
14	141
14	142
14	143
14	144
14	145
14	148
14	149
14	151
14	152
14	153
14	155
14	156
14	157
14	161
14	164
14	165
14	166
14	167
14	169
14	171
14	173
14	175
14	177
14	179
14	181
14	182
14	183
14	185
14	186
14	188
14	191
14	192
14	193
14	194
14	195
14	196
15	17
15	18
15	20
15	21
15	24
15	26
15	28
15	30
15	31
15	33
15	40
15	41
15	44
15	45
15	49
15	50
15	51
15	53
15	54
15	55
15	56
15	57
15	60
15	61
15	62
15	63
15	64
15	67
15	68
15	69
15	70
15	72
15	73
15	74
15	75
15	76
15	78
15	80
15	81
15	82
15	84
15	85
15	86
15	87
15	88
15	89
15	90
15	91
15	92
15	94
15	96
15	97
15	99
15	100
15	101
15	102
15	104
15	105
15	107
15	108
15	110
15	113
15	114
15	115
15	120
15	121
15	122
15	123
15	124
15	125
15	126
15	127
15	129
15	130
15	131
15	132
15	133
15	134
15	135
15	136
15	137
15	140
15	141
15	142
15	143
15	146
15	147
15	150
15	153
15	154
15	156
15	157
15	159
15	160
15	161
15	163
15	164
15	165
15	166
15	169
15	171
15	172
15	175
15	178
15	179
15	181
15	183
15	184
15	186
15	187
15	188
15	189
15	190
15	193
15	197
15	198
15	199
16	17
16	19
16	21
16	22
16	23
16	26
16	27
16	29
16	31
16	33
16	35
16	36
16	37
16	40
16	41
16	42
16	44
16	45
16	47
16	49
16	51
16	52
16	54
16	55
16	56
16	57
16	58
16	59
16	60
16	61
16	62
16	64
16	65
16	67
16	69
16	70
16	72
16	74
16	75
16	79
16	80
16	84
16	85
16	86
16	87
16	88
16	89
16	90
16	91
16	92
16	94
16	95
16	96
16	100
16	101
16	103
16	108
16	109
16	111
16	112
16	113
16	114
16	115
16	116
16	117
16	118
16	120
16	121
16	124
16	126
16	127
16	128
16	129
16	131
16	133
16	134
16	136
16	137
16	143
16	144
16	145
16	147
16	150
16	151
16	153
16	154
16	155
16	158
16	162
16	165
16	166
16	169
16	170
16	173
16	174
16	175
16	176
16	178
16	181
16	182
16	183
16	188
16	189
16	190
16	191
16	192
16	194
16	195
16	197
16	198
16	199
17	19
17	21
17	22
17	23
17	26
17	27
17	30
17	31
17	32
17	33
17	34
17	36
17	38
17	39
17	41
17	43
17	45
17	46
17	48
17	50
17	51
17	52
17	53
17	56
17	57
17	58
17	60
17	61
17	62
17	63
17	64
17	66
17	68
17	69
17	70
17	73
17	74
17	75
17	76
17	78
17	79
17	82
17	84
17	85
17	87
17	88
17	89
17	91
17	92
17	94
17	95
17	99
17	100
17	101
17	102
17	103
17	104
17	105
17	109
17	111
17	112
17	113
17	115
17	116
17	117
17	119
17	121
17	123
17	124
17	125
17	126
17	127
17	129
17	130
17	134
17	135
17	137
17	138
17	139
17	141
17	143
17	144
17	145
17	146
17	147
17	149
17	150
17	151
17	154
17	157
17	158
17	159
17	161
17	162
17	164
17	165
17	166
17	167
17	168
17	169
17	170
17	171
17	175
17	176
17	177
17	178
17	180
17	181
17	182
17	184
17	186
17	187
17	189
17	191
17	194
17	196
17	197
17	199
18	19
18	26
18	27
18	28
18	29
18	30
18	31
18	32
18	33
18	35
18	36
18	39
18	41
18	42
18	43
18	44
18	46
18	47
18	49
18	50
18	51
18	52
18	53
18	54
18	55
18	57
18	59
18	61
18	62
18	63
18	65
18	68
18	69
18	71
18	73
18	75
18	76
18	80
18	83
18	84
18	85
18	86
18	90
18	93
18	94
18	95
18	96
18	98
18	102
18	104
18	108
18	109
18	111
18	112
18	113
18	116
18	118
18	121
18	122
18	123
18	125
18	126
18	128
18	129
18	131
18	133
18	134
18	136
18	137
18	138
18	139
18	140
18	142
18	143
18	146
18	147
18	151
18	152
18	153
18	155
18	156
18	157
18	158
18	160
18	161
18	162
18	163
18	164
18	165
18	167
18	168
18	169
18	170
18	171
18	173
18	177
18	179
18	180
18	181
18	183
18	184
18	186
18	187
18	190
18	191
18	193
18	194
18	197
18	198
19	20
19	21
19	22
19	25
19	28
19	29
19	31
19	32
19	34
19	37
19	39
19	41
19	42
19	45
19	46
19	47
19	48
19	49
19	52
19	53
19	54
19	55
19	56
19	58
19	60
19	62
19	63
19	64
19	65
19	68
19	69
19	71
19	72
19	74
19	75
19	76
19	78
19	80
19	83
19	84
19	85
19	86
19	87
19	93
19	94
19	96
19	98
19	99
19	100
19	102
19	104
19	105
19	106
19	107
19	109
19	110
19	111
19	112
19	113
19	114
19	115
19	116
19	118
19	119
19	120
19	121
19	123
19	125
19	126
19	127
19	128
19	129
19	130
19	131
19	137
19	138
19	139
19	140
19	141
19	142
19	144
19	145
19	146
19	147
19	149
19	152
19	153
19	154
19	155
19	156
19	158
19	162
19	163
19	165
19	167
19	168
19	172
19	173
19	176
19	177
19	179
19	181
19	184
19	186
19	188
19	189
19	190
19	192
19	193
19	194
19	195
19	196
19	197
19	198
19	199
20	21
20	23
20	24
20	26
20	30
20	31
20	34
20	35
20	37
20	40
20	42
20	46
20	47
20	49
20	50
20	51
20	52
20	53
20	55
20	56
20	57
20	58
20	60
20	61
20	62
20	63
20	64
20	65
20	66
20	67
20	68
20	69
20	70
20	73
20	74
20	75
20	76
20	77
20	79
20	82
20	84
20	86
20	87
20	88
20	89
20	90
20	91
20	93
20	95
20	98
20	100
20	101
20	105
20	106
20	107
20	108
20	111
20	112
20	113
20	117
20	118
20	119
20	120
20	121
20	122
20	124
20	126
20	127
20	128
20	129
20	131
20	132
20	133
20	134
20	135
20	136
20	137
20	138
20	140
20	141
20	143
20	144
20	147
20	149
20	150
20	151
20	152
20	154
20	155
20	156
20	157
20	158
20	159
20	160
20	162
20	166
20	167
20	173
20	174
20	175
20	176
20	177
20	178
20	179
20	182
20	183
20	184
20	185
20	186
20	187
20	188
20	189
20	190
20	193
20	194
20	195
20	197
20	198
20	199
21	23
21	24
21	25
21	27
21	28
21	31
21	32
21	33
21	36
21	38
21	39
21	40
21	42
21	43
21	44
21	45
21	46
21	48
21	49
21	50
21	51
21	52
21	54
21	55
21	56
21	59
21	60
21	61
21	62
21	66
21	67
21	68
21	72
21	75
21	83
21	84
21	86
21	88
21	89
21	90
21	91
21	94
21	95
21	98
21	100
21	101
21	103
21	104
21	106
21	107
21	110
21	111
21	113
21	114
21	116
21	117
21	119
21	121
21	122
21	124
21	125
21	126
21	128
21	133
21	135
21	137
21	138
21	139
21	140
21	141
21	143
21	144
21	145
21	147
21	148
21	149
21	152
21	153
21	156
21	157
21	158
21	159
21	162
21	164
21	169
21	170
21	171
21	173
21	174
21	175
21	176
21	177
21	178
21	179
21	180
21	181
21	184
21	187
21	188
21	189
21	190
21	192
21	194
21	197
21	198
22	23
22	24
22	25
22	27
22	28
22	30
22	32
22	33
22	34
22	37
22	41
22	43
22	44
22	45
22	46
22	50
22	55
22	57
22	60
22	61
22	62
22	64
22	65
22	68
22	70
22	71
22	74
22	76
22	77
22	78
22	79
22	80
22	82
22	83
22	84
22	85
22	86
22	87
22	89
22	91
22	92
22	94
22	96
22	99
22	104
22	106
22	107
22	108
22	109
22	111
22	112
22	113
22	114
22	119
22	120
22	122
22	124
22	126
22	127
22	128
22	129
22	130
22	131
22	132
22	134
22	137
22	141
22	145
22	146
22	147
22	149
22	152
22	153
22	154
22	156
22	157
22	158
22	159
22	160
22	161
22	162
22	165
22	167
22	169
22	170
22	171
22	172
22	173
22	174
22	175
22	179
22	180
22	181
22	182
22	183
22	185
22	186
22	191
22	192
22	193
22	194
22	195
22	197
23	24
23	27
23	28
23	30
23	32
23	33
23	34
23	36
23	39
23	41
23	45
23	46
23	48
23	49
23	51
23	53
23	55
23	56
23	57
23	58
23	60
23	61
23	62
23	63
23	66
23	67
23	68
23	69
23	72
23	73
23	76
23	77
23	79
23	80
23	83
23	84
23	85
23	89
23	90
23	93
23	99
23	100
23	104
23	105
23	107
23	110
23	112
23	113
23	117
23	120
23	121
23	122
23	125
23	126
23	128
23	129
23	130
23	131
23	134
23	135
23	136
23	137
23	139
23	142
23	144
23	145
23	146
23	147
23	148
23	149
23	150
23	153
23	154
23	155
23	156
23	157
23	158
23	159
23	160
23	161
23	162
23	164
23	165
23	166
23	167
23	171
23	172
23	173
23	174
23	175
23	180
23	183
23	185
23	188
23	189
23	190
23	194
23	197
24	25
24	27
24	28
24	29
24	31
24	33
24	39
24	41
24	42
24	44
24	47
24	48
24	49
24	51
24	52
24	53
24	54
24	56
24	58
24	59
24	60
24	61
24	63
24	64
24	65
24	67
24	68
24	69
24	71
24	72
24	73
24	74
24	78
24	80
24	83
24	84
24	85
24	86
24	87
24	89
24	90
24	91
24	92
24	93
24	96
24	97
24	98
24	101
24	103
24	105
24	106
24	108
24	109
24	111
24	113
24	115
24	116
24	119
24	121
24	122
24	123
24	124
24	125
24	126
24	127
24	133
24	134
24	135
24	137
24	138
24	139
24	140
24	141
24	142
24	143
24	145
24	146
24	147
24	149
24	150
24	151
24	152
24	153
24	154
24	155
24	158
24	159
24	160
24	162
24	163
24	167
24	168
24	169
24	172
24	173
24	174
24	175
24	176
24	178
24	179
24	184
24	185
24	187
24	188
24	190
24	193
24	194
24	196
25	26
25	27
25	28
25	29
25	30
25	32
25	34
25	35
25	36
25	40
25	41
25	44
25	45
25	46
25	48
25	52
25	53
25	54
25	55
25	56
25	59
25	60
25	61
25	62
25	64
25	65
25	66
25	67
25	68
25	70
25	71
25	72
25	73
25	77
25	78
25	79
25	80
25	82
25	84
25	85
25	86
25	87
25	88
25	89
25	90
25	91
25	94
25	96
25	100
25	101
25	102
25	103
25	105
25	106
25	107
25	108
25	109
25	110
25	111
25	112
25	114
25	115
25	119
25	120
25	122
25	124
25	125
25	127
25	128
25	129
25	133
25	135
25	137
25	139
25	140
25	141
25	142
25	144
25	145
25	147
25	148
25	149
25	150
25	151
25	152
25	153
25	154
25	155
25	156
25	157
25	160
25	161
25	162
25	164
25	165
25	169
25	171
25	172
25	174
25	175
25	176
25	177
25	178
25	179
25	180
25	181
25	183
25	187
25	189
25	190
25	191
25	192
25	195
25	197
25	199
26	28
26	31
26	34
26	36
26	38
26	39
26	40
26	43
26	44
26	45
26	46
26	47
26	48
26	49
26	53
26	54
26	56
26	57
26	59
26	60
26	61
26	62
26	63
26	64
26	66
26	67
26	68
26	70
26	74
26	75
26	76
26	82
26	83
26	87
26	89
26	90
26	93
26	95
26	97
26	98
26	99
26	100
26	102
26	103
26	106
26	108
26	109
26	111
26	114
26	115
26	118
26	119
26	122
26	123
26	124
26	125
26	126
26	128
26	130
26	131
26	133
26	134
26	135
26	136
26	137
26	138
26	142
26	143
26	147
26	148
26	150
26	151
26	152
26	154
26	155
26	157
26	158
26	159
26	160
26	161
26	162
26	163
26	165
26	166
26	167
26	169
26	172
26	173
26	174
26	175
26	176
26	177
26	180
26	182
26	183
26	184
26	185
26	186
26	187
26	190
26	192
26	194
26	195
26	197
26	199
27	29
27	30
27	31
27	33
27	34
27	35
27	36
27	38
27	40
27	41
27	44
27	45
27	50
27	52
27	55
27	59
27	60
27	61
27	64
27	66
27	67
27	70
27	71
27	72
27	73
27	75
27	76
27	77
27	78
27	80
27	81
27	82
27	84
27	86
27	87
27	88
27	90
27	92
27	93
27	96
27	99
27	100
27	101
27	102
27	103
27	104
27	105
27	107
27	109
27	111
27	113
27	115
27	117
27	120
27	121
27	122
27	123
27	124
27	127
27	128
27	129
27	130
27	131
27	132
27	133
27	134
27	135
27	137
27	139
27	140
27	141
27	142
27	143
27	144
27	145
27	147
27	148
27	149
27	150
27	151
27	152
27	153
27	154
27	157
27	158
27	159
27	161
27	162
27	165
27	166
27	167
27	168
27	169
27	170
27	171
27	173
27	178
27	179
27	180
27	181
27	182
27	184
27	186
27	187
27	188
27	189
27	190
27	192
27	197
27	198
27	199
28	29
28	30
28	33
28	34
28	35
28	36
28	37
28	38
28	41
28	42
28	43
28	45
28	46
28	47
28	48
28	50
28	51
28	56
28	57
28	59
28	61
28	62
28	66
28	69
28	72
28	73
28	74
28	76
28	77
28	78
28	81
28	82
28	83
28	84
28	88
28	89
28	90
28	92
28	93
28	96
28	97
28	100
28	101
28	103
28	106
28	108
28	112
28	114
28	116
28	117
28	118
28	121
28	122
28	123
28	124
28	125
28	126
28	128
28	129
28	130
28	132
28	133
28	134
28	136
28	141
28	142
28	143
28	144
28	145
28	146
28	147
28	148
28	149
28	152
28	154
28	156
28	157
28	158
28	160
28	162
28	163
28	165
28	167
28	168
28	171
28	172
28	174
28	177
28	178
28	179
28	182
28	183
28	184
28	185
28	187
28	188
28	190
28	192
28	193
28	197
28	199
29	32
29	34
29	35
29	36
29	39
29	40
29	41
29	44
29	46
29	49
29	50
29	51
29	53
29	54
29	55
29	56
29	59
29	60
29	62
29	63
29	64
29	65
29	67
29	70
29	71
29	74
29	76
29	77
29	79
29	82
29	83
29	84
29	86
29	87
29	88
29	91
29	93
29	95
29	97
29	98
29	100
29	101
29	102
29	103
29	104
29	105
29	106
29	108
29	110
29	111
29	112
29	113
29	115
29	116
29	117
29	118
29	121
29	122
29	124
29	125
29	126
29	127
29	130
29	134
29	135
29	136
29	137
29	139
29	141
29	142
29	145
29	146
29	149
29	150
29	151
29	153
29	157
29	159
29	162
29	163
29	166
29	167
29	168
29	171
29	172
29	173
29	174
29	175
29	179
29	182
29	183
29	184
29	185
29	189
29	190
29	191
29	192
29	193
29	195
29	198
30	31
30	32
30	34
30	36
30	37
30	38
30	39
30	40
30	43
30	44
30	45
30	46
30	48
30	49
30	50
30	51
30	52
30	53
30	54
30	56
30	57
30	58
30	60
30	63
30	65
30	66
30	67
30	71
30	73
30	74
30	75
30	76
30	77
30	78
30	81
30	83
30	85
30	88
30	90
30	91
30	93
30	94
30	95
30	98
30	100
30	101
30	103
30	104
30	105
30	108
30	112
30	113
30	115
30	116
30	119
30	120
30	122
30	123
30	125
30	126
30	129
30	130
30	131
30	133
30	134
30	135
30	137
30	138
30	139
30	140
30	141
30	142
30	143
30	144
30	145
30	146
30	147
30	148
30	149
30	152
30	154
30	156
30	157
30	159
30	161
30	162
30	165
30	166
30	167
30	168
30	169
30	171
30	174
30	175
30	178
30	181
30	182
30	183
30	186
30	187
30	190
30	191
30	192
30	193
30	194
30	195
30	196
30	197
30	198
30	199
31	32
31	33
31	34
31	35
31	36
31	37
31	39
31	40
31	43
31	44
31	47
31	49
31	50
31	52
31	54
31	55
31	57
31	60
31	63
31	64
31	66
31	67
31	69
31	71
31	73
31	74
31	76
31	78
31	79
31	80
31	81
31	83
31	84
31	85
31	86
31	87
31	88
31	90
31	91
31	92
31	95
31	96
31	99
31	100
31	102
31	103
31	104
31	108
31	109
31	110
31	113
31	114
31	116
31	120
31	121
31	123
31	125
31	126
31	127
31	128
31	129
31	131
31	134
31	135
31	136
31	141
31	142
31	145
31	146
31	148
31	151
31	152
31	154
31	158
31	159
31	161
31	165
31	167
31	168
31	169
31	170
31	171
31	173
31	174
31	176
31	177
31	178
31	179
31	180
31	182
31	184
31	186
31	189
31	190
31	191
31	192
31	194
31	198
31	199
32	33
32	35
32	37
32	39
32	40
32	42
32	43
32	44
32	48
32	56
32	57
32	58
32	60
32	61
32	64
32	65
32	67
32	68
32	70
32	71
32	73
32	74
32	75
32	77
32	78
32	79
32	80
32	81
32	82
32	83
32	86
32	87
32	90
32	91
32	93
32	94
32	98
32	99
32	100
32	103
32	104
32	105
32	108
32	109
32	111
32	112
32	115
32	118
32	121
32	122
32	125
32	128
32	131
32	132
32	133
32	134
32	135
32	136
32	139
32	140
32	141
32	142
32	143
32	144
32	146
32	149
32	150
32	151
32	152
32	153
32	155
32	156
32	160
32	161
32	162
32	163
32	164
32	165
32	166
32	167
32	169
32	170
32	172
32	173
32	174
32	175
32	177
32	178
32	179
32	180
32	183
32	185
32	186
32	187
32	188
32	191
32	192
32	195
32	196
32	198
33	36
33	38
33	39
33	40
33	41
33	44
33	46
33	47
33	49
33	50
33	54
33	55
33	57
33	58
33	63
33	64
33	68
33	69
33	71
33	75
33	76
33	78
33	79
33	80
33	81
33	84
33	86
33	89
33	90
33	91
33	92
33	93
33	94
33	95
33	96
33	97
33	98
33	100
33	101
33	102
33	103
33	106
33	107
33	111
33	112
33	116
33	118
33	119
33	120
33	121
33	122
33	126
33	127
33	128
33	129
33	131
33	132
33	133
33	134
33	135
33	136
33	137
33	138
33	139
33	140
33	141
33	144
33	146
33	147
33	150
33	152
33	155
33	156
33	157
33	158
33	161
33	162
33	163
33	164
33	167
33	170
33	171
33	172
33	174
33	178
33	180
33	185
33	186
33	187
33	188
33	189
33	190
33	191
33	192
33	193
33	194
33	196
33	197
34	35
34	36
34	37
34	39
34	40
34	41
34	43
34	44
34	45
34	47
34	48
34	49
34	51
34	53
34	55
34	57
34	58
34	59
34	61
34	63
34	64
34	65
34	66
34	67
34	69
34	72
34	75
34	76
34	77
34	78
34	79
34	80
34	81
34	82
34	84
34	86
34	87
34	89
34	91
34	92
34	99
34	105
34	106
34	108
34	110
34	112
34	115
34	119
34	120
34	121
34	124
34	126
34	128
34	130
34	132
34	134
34	136
34	137
34	138
34	139
34	141
34	143
34	144
34	145
34	150
34	154
34	156
34	158
34	161
34	163
34	164
34	165
34	166
34	167
34	169
34	172
34	173
34	174
34	175
34	176
34	177
34	178
34	180
34	181
34	184
34	185
34	186
34	188
34	193
34	195
34	199
35	36
35	37
35	39
35	40
35	41
35	42
35	43
35	45
35	46
35	48
35	49
35	50
35	51
35	54
35	55
35	56
35	57
35	58
35	61
35	62
35	65
35	69
35	70
35	71
35	72
35	73
35	74
35	76
35	79
35	82
35	83
35	84
35	85
35	87
35	88
35	91
35	92
35	93
35	94
35	95
35	96
35	97
35	98
35	99
35	100
35	103
35	107
35	108
35	112
35	113
35	115
35	116
35	117
35	118
35	119
35	121
35	122
35	124
35	125
35	127
35	128
35	129
35	131
35	134
35	136
35	139
35	140
35	142
35	143
35	150
35	151
35	152
35	153
35	154
35	155
35	156
35	157
35	158
35	159
35	160
35	164
35	166
35	167
35	168
35	169
35	170
35	171
35	172
35	174
35	175
35	177
35	178
35	180
35	181
35	182
35	184
35	186
35	187
35	188
35	190
35	194
35	195
35	196
35	198
36	39
36	40
36	41
36	47
36	48
36	49
36	50
36	51
36	53
36	55
36	56
36	58
36	59
36	60
36	61
36	62
36	64
36	67
36	68
36	71
36	72
36	73
36	76
36	77
36	78
36	79
36	81
36	83
36	84
36	86
36	89
36	93
36	94
36	95
36	96
36	97
36	98
36	99
36	100
36	101
36	102
36	104
36	106
36	107
36	108
36	109
36	112
36	114
36	116
36	117
36	118
36	121
36	122
36	124
36	126
36	128
36	130
36	133
36	137
36	138
36	140
36	141
36	142
36	144
36	145
36	147
36	151
36	152
36	154
36	156
36	158
36	159
36	160
36	162
36	163
36	167
36	168
36	170
36	172
36	174
36	175
36	176
36	178
36	179
36	180
36	182
36	183
36	186
36	188
36	191
36	192
36	194
36	195
36	196
36	197
36	198
36	199
37	38
37	39
37	40
37	41
37	42
37	43
37	44
37	45
37	46
37	47
37	48
37	52
37	53
37	55
37	56
37	57
37	60
37	62
37	63
37	64
37	67
37	68
37	69
37	70
37	72
37	73
37	75
37	77
37	82
37	83
37	84
37	86
37	87
37	88
37	90
37	94
37	96
37	97
37	98
37	99
37	100
37	102
37	103
37	106
37	107
37	108
37	109
37	111
37	112
37	114
37	115
37	117
37	119
37	120
37	121
37	122
37	123
37	125
37	127
37	129
37	134
37	137
37	138
37	139
37	143
37	144
37	145
37	146
37	147
37	150
37	151
37	153
37	154
37	157
37	160
37	161
37	163
37	164
37	165
37	167
37	168
37	172
37	174
37	175
37	177
37	181
37	185
37	186
37	189
37	194
37	198
37	199
38	40
38	41
38	42
38	43
38	44
38	45
38	46
38	47
38	48
38	49
38	50
38	52
38	53
38	54
38	55
38	56
38	57
38	58
38	59
38	60
38	64
38	67
38	68
38	70
38	71
38	73
38	74
38	75
38	79
38	80
38	81
38	82
38	84
38	85
38	86
38	87
38	88
38	90
38	91
38	92
38	93
38	94
38	97
38	98
38	99
38	100
38	101
38	103
38	104
38	105
38	106
38	109
38	110
38	111
38	112
38	113
38	114
38	116
38	117
38	118
38	121
38	122
38	123
38	124
38	125
38	127
38	131
38	132
38	134
38	139
38	141
38	142
38	143
38	144
38	145
38	146
38	148
38	150
38	151
38	152
38	153
38	155
38	156
38	160
38	161
38	162
38	164
38	165
38	166
38	169
38	172
38	175
38	176
38	180
38	181
38	182
38	186
38	188
38	190
38	191
38	193
38	194
38	197
38	198
39	40
39	41
39	42
39	43
39	44
39	46
39	47
39	51
39	52
39	53
39	54
39	56
39	58
39	62
39	64
39	67
39	68
39	70
39	71
39	77
39	79
39	80
39	81
39	82
39	83
39	84
39	85
39	86
39	89
39	91
39	92
39	93
39	94
39	95
39	97
39	99
39	100
39	102
39	103
39	104
39	105
39	114
39	118
39	119
39	123
39	126
39	127
39	130
39	131
39	133
39	135
39	138
39	139
39	140
39	141
39	144
39	145
39	147
39	149
39	150
39	151
39	153
39	154
39	156
39	157
39	160
39	163
39	164
39	165
39	166
39	170
39	172
39	173
39	174
39	176
39	177
39	180
39	182
39	183
39	185
39	187
39	192
39	194
39	198
40	42
40	43
40	44
40	45
40	46
40	47
40	48
40	49
40	51
40	52
40	54
40	57
40	58
40	59
40	61
40	66
40	67
40	69
40	70
40	72
40	75
40	76
40	77
40	78
40	79
40	81
40	82
40	83
40	84
40	85
40	86
40	87
40	89
40	90
40	91
40	97
40	99
40	101
40	102
40	104
40	108
40	110
40	111
40	114
40	115
40	116
40	117
40	118
40	119
40	120
40	121
40	124
40	125
40	127
40	128
40	131
40	133
40	134
40	137
40	138
40	140
40	141
40	146
40	147
40	148
40	150
40	153
40	154
40	155
40	156
40	158
40	163
40	165
40	167
40	169
40	170
40	171
40	173
40	175
40	177
40	178
40	179
40	181
40	182
40	183
40	184
40	186
40	187
40	188
40	189
40	190
40	191
40	192
40	193
40	195
40	196
40	197
40	198
40	199
41	42
41	43
41	45
41	47
41	48
41	50
41	51
41	52
41	53
41	56
41	58
41	59
41	61
41	64
41	66
41	69
41	72
41	74
41	77
41	78
41	79
41	80
41	81
41	82
41	83
41	84
41	85
41	89
41	90
41	92
41	93
41	96
41	97
41	98
41	99
41	100
41	102
41	105
41	106
41	110
41	111
41	113
41	114
41	115
41	116
41	118
41	120
41	121
41	126
41	127
41	128
41	129
41	130
41	132
41	133
41	134
41	135
41	136
41	137
41	139
41	142
41	144
41	145
41	146
41	147
41	148
41	149
41	150
41	151
41	153
41	154
41	158
41	160
41	162
41	164
41	166
41	168
41	170
41	171
41	172
41	173
41	175
41	176
41	179
41	180
41	181
41	182
41	183
41	184
41	185
41	187
41	188
41	189
41	191
41	192
41	195
41	196
41	198
42	45
42	48
42	53
42	54
42	56
42	57
42	60
42	62
42	63
42	64
42	65
42	67
42	68
42	70
42	72
42	73
42	74
42	77
42	78
42	84
42	85
42	87
42	88
42	91
42	93
42	95
42	98
42	101
42	102
42	103
42	105
42	108
42	109
42	110
42	111
42	113
42	114
42	115
42	117
42	118
42	120
42	122
42	123
42	125
42	126
42	127
42	128
42	130
42	132
42	133
42	134
42	135
42	136
42	137
42	138
42	139
42	149
42	150
42	152
42	155
42	156
42	158
42	161
42	162
42	163
42	164
42	165
42	167
42	168
42	169
42	172
42	173
42	175
42	177
42	181
42	182
42	183
42	186
42	188
42	190
42	191
42	192
42	196
42	197
42	198
42	199
43	44
43	45
43	46
43	47
43	48
43	49
43	50
43	51
43	53
43	54
43	58
43	59
43	61
43	62
43	65
43	66
43	73
43	80
43	82
43	83
43	85
43	87
43	88
43	89
43	90
43	92
43	93
43	98
43	99
43	100
43	102
43	107
43	108
43	109
43	112
43	114
43	116
43	117
43	118
43	119
43	120
43	121
43	122
43	123
43	124
43	126
43	128
43	130
43	131
43	135
43	136
43	137
43	139
43	140
43	143
43	147
43	150
43	152
43	154
43	155
43	156
43	157
43	159
43	162
43	167
43	169
43	170
43	172
43	173
43	174
43	178
43	179
43	181
43	182
43	183
43	184
43	185
43	186
43	187
43	189
43	190
43	191
43	193
43	194
43	196
43	197
44	46
44	47
44	48
44	49
44	50
44	51
44	52
44	53
44	56
44	57
44	58
44	59
44	60
44	61
44	65
44	66
44	68
44	71
44	72
44	73
44	74
44	81
44	83
44	85
44	86
44	87
44	88
44	90
44	91
44	92
44	99
44	101
44	103
44	104
44	106
44	113
44	114
44	115
44	116
44	117
44	119
44	120
44	121
44	122
44	123
44	124
44	125
44	126
44	127
44	129
44	130
44	134
44	135
44	137
44	138
44	139
44	141
44	143
44	146
44	147
44	148
44	149
44	150
44	151
44	154
44	155
44	156
44	159
44	161
44	162
44	163
44	165
44	170
44	171
44	172
44	173
44	174
44	175
44	178
44	179
44	180
44	184
44	185
44	191
44	192
44	193
44	194
44	195
44	196
44	198
44	199
45	46
45	47
45	49
45	51
45	52
45	54
45	55
45	56
45	58
45	60
45	62
45	64
45	66
45	67
45	68
45	69
45	70
45	72
45	73
45	74
45	75
45	77
45	78
45	79
45	80
45	83
45	84
45	85
45	88
45	89
45	91
45	94
45	95
45	97
45	98
45	99
45	100
45	101
45	102
45	103
45	104
45	106
45	107
45	109
45	110
45	111
45	112
45	113
45	114
45	116
45	119
45	123
45	125
45	127
45	131
45	135
45	136
45	138
45	139
45	140
45	142
45	143
45	145
45	146
45	147
45	148
45	150
45	152
45	154
45	155
45	161
45	162
45	164
45	165
45	166
45	168
45	169
45	173
45	179
45	180
45	183
45	184
45	185
45	186
45	187
45	188
45	189
45	190
45	194
45	195
45	196
45	198
45	199
46	47
46	48
46	54
46	55
46	58
46	59
46	60
46	61
46	62
46	64
46	65
46	66
46	70
46	73
46	74
46	75
46	76
46	77
46	78
46	79
46	81
46	82
46	84
46	85
46	86
46	87
46	88
46	91
46	92
46	93
46	95
46	97
46	98
46	100
46	101
46	103
46	104
46	105
46	106
46	107
46	108
46	109
46	110
46	112
46	114
46	118
46	119
46	122
46	124
46	125
46	126
46	127
46	128
46	130
46	131
46	132
46	134
46	136
46	138
46	139
46	141
46	142
46	145
46	146
46	148
46	152
46	153
46	155
46	156
46	157
46	159
46	160
46	161
46	162
46	163
46	164
46	166
46	169
46	172
46	173
46	174
46	175
46	180
46	181
46	183
46	186
46	187
46	188
46	191
46	193
46	195
46	198
46	199
47	49
47	50
47	53
47	54
47	55
47	56
47	58
47	59
47	60
47	61
47	62
47	63
47	65
47	66
47	67
47	69
47	72
47	73
47	76
47	77
47	79
47	81
47	82
47	83
47	85
47	86
47	87
47	89
47	91
47	93
47	96
47	97
47	98
47	99
47	100
47	101
47	102
47	104
47	105
47	106
47	107
47	108
47	112
47	113
47	114
47	115
47	116
47	119
47	120
47	122
47	125
47	126
47	128
47	130
47	132
47	133
47	135
47	141
47	144
47	146
47	148
47	149
47	150
47	151
47	152
47	153
47	154
47	156
47	157
47	158
47	159
47	160
47	162
47	163
47	164
47	165
47	168
47	172
47	173
47	177
47	178
47	179
47	180
47	181
47	182
47	183
47	184
47	185
47	188
47	189
47	190
47	191
47	193
47	194
47	197
47	199
48	49
48	53
48	54
48	56
48	59
48	61
48	62
48	63
48	64
48	65
48	66
48	67
48	68
48	70
48	71
48	72
48	73
48	74
48	75
48	76
48	79
48	80
48	81
48	85
48	86
48	87
48	90
48	91
48	92
48	94
48	95
48	96
48	98
48	102
48	104
48	106
48	110
48	111
48	112
48	114
48	115
48	120
48	121
48	122
48	124
48	127
48	129
48	130
48	132
48	133
48	134
48	135
48	136
48	137
48	139
48	140
48	141
48	145
48	148
48	149
48	150
48	151
48	154
48	155
48	156
48	157
48	158
48	159
48	162
48	163
48	164
48	166
48	167
48	169
48	171
48	173
48	176
48	177
48	180
48	181
48	186
48	188
48	191
48	192
48	194
48	197
48	198
48	199
49	52
49	54
49	55
49	57
49	59
49	60
49	63
49	65
49	67
49	68
49	69
49	71
49	72
49	73
49	75
49	79
49	80
49	81
49	82
49	83
49	84
49	85
49	87
49	88
49	89
49	90
49	93
49	94
49	95
49	96
49	97
49	98
49	100
49	103
49	106
49	107
49	109
49	110
49	111
49	112
49	113
49	114
49	116
49	118
49	119
49	120
49	124
49	126
49	132
49	133
49	137
49	138
49	139
49	140
49	142
49	143
49	144
49	145
49	146
49	147
49	148
49	150
49	153
49	154
49	155
49	160
49	162
49	164
49	165
49	166
49	167
49	168
49	169
49	171
49	173
49	175
49	176
49	177
49	178
49	179
49	183
49	184
49	186
49	187
49	188
49	190
49	191
49	192
49	193
49	194
49	195
49	198
49	199
50	51
50	52
50	53
50	55
50	56
50	59
50	60
50	61
50	62
50	64
50	65
50	66
50	67
50	68
50	69
50	71
50	72
50	75
50	76
50	77
50	79
50	80
50	82
50	86
50	88
50	89
50	90
50	92
50	93
50	96
50	97
50	100
50	105
50	106
50	108
50	109
50	110
50	114
50	116
50	117
50	118
50	119
50	121
50	122
50	123
50	124
50	126
50	128
50	130
50	131
50	132
50	134
50	135
50	137
50	138
50	139
50	140
50	144
50	145
50	146
50	147
50	149
50	150
50	151
50	152
50	153
50	154
50	156
50	160
50	163
50	164
50	165
50	167
50	168
50	170
50	172
50	174
50	175
50	176
50	177
50	179
50	182
50	183
50	184
50	185
50	186
50	187
50	188
50	189
50	190
50	192
50	194
50	195
50	196
50	197
50	198
51	53
51	54
51	55
51	56
51	58
51	59
51	60
51	61
51	62
51	63
51	67
51	68
51	71
51	73
51	76
51	79
51	81
51	83
51	85
51	86
51	89
51	90
51	91
51	93
51	94
51	96
51	97
51	98
51	99
51	100
51	101
51	102
51	104
51	105
51	106
51	107
51	109
51	110
51	115
51	118
51	121
51	123
51	126
51	128
51	130
51	131
51	136
51	138
51	139
51	140
51	143
51	144
51	145
51	147
51	151
51	152
51	153
51	157
51	158
51	162
51	163
51	164
51	165
51	166
51	168
51	169
51	171
51	172
51	174
51	175
51	176
51	178
51	179
51	180
51	181
51	182
51	183
51	184
51	185
51	186
51	188
51	189
51	192
51	193
51	195
51	197
51	199
52	54
52	59
52	60
52	61
52	63
52	64
52	65
52	66
52	67
52	69
52	71
52	73
52	76
52	78
52	79
52	82
52	85
52	91
52	93
52	94
52	96
52	100
52	101
52	103
52	104
52	106
52	107
52	108
52	109
52	110
52	111
52	112
52	116
52	117
52	118
52	119
52	120
52	121
52	122
52	125
52	127
52	128
52	129
52	131
52	136
52	137
52	138
52	139
52	141
52	142
52	145
52	146
52	148
52	150
52	153
52	154
52	155
52	157
52	160
52	164
52	166
52	168
52	170
52	171
52	172
52	173
52	174
52	175
52	179
52	180
52	181
52	184
52	185
52	186
52	189
52	190
52	192
52	193
52	194
52	196
52	197
52	198
52	199
53	54
53	56
53	57
53	58
53	60
53	61
53	64
53	67
53	68
53	72
53	74
53	75
53	78
53	79
53	80
53	81
53	82
53	84
53	85
53	86
53	87
53	88
53	90
53	92
53	93
53	94
53	96
53	97
53	100
53	102
53	103
53	104
53	106
53	107
53	109
53	111
53	113
53	114
53	115
53	116
53	117
53	120
53	122
53	126
53	127
53	134
53	137
53	138
53	139
53	141
53	145
53	146
53	147
53	148
53	151
53	153
53	154
53	156
53	157
53	159
53	160
53	161
53	163
53	164
53	165
53	166
53	167
53	171
53	174
53	178
53	180
53	181
53	183
53	184
53	185
53	186
53	187
53	188
53	189
53	190
53	191
53	192
53	193
53	194
53	195
53	196
53	198
53	199
54	55
54	56
54	58
54	59
54	60
54	61
54	62
54	66
54	69
54	70
54	71
54	72
54	75
54	76
54	77
54	79
54	85
54	86
54	87
54	91
54	93
54	94
54	98
54	99
54	101
54	102
54	103
54	104
54	105
54	106
54	107
54	109
54	110
54	111
54	112
54	113
54	114
54	115
54	116
54	117
54	120
54	122
54	123
54	124
54	125
54	129
54	130
54	135
54	136
54	137
54	138
54	139
54	141
54	142
54	143
54	150
54	152
54	154
54	155
54	164
54	167
54	168
54	171
54	172
54	173
54	176
54	177
54	178
54	179
54	180
54	181
54	182
54	186
54	188
54	190
54	191
54	192
54	193
54	199
55	56
55	57
55	58
55	59
55	63
55	64
55	65
55	66
55	67
55	68
55	69
55	72
55	75
55	76
55	77
55	79
55	80
55	83
55	84
55	85
55	86
55	88
55	91
55	92
55	93
55	95
55	99
55	100
55	102
55	103
55	104
55	105
55	107
55	108
55	109
55	110
55	111
55	112
55	113
55	115
55	116
55	117
55	118
55	119
55	120
55	122
55	123
55	124
55	126
55	129
55	131
55	133
55	134
55	135
55	136
55	138
55	139
55	140
55	141
55	142
55	143
55	144
55	147
55	148
55	150
55	151
55	152
55	153
55	155
55	158
55	159
55	160
55	161
55	163
55	164
55	168
55	169
55	171
55	174
55	178
55	180
55	182
55	183
55	184
55	186
55	187
55	188
55	189
55	190
55	192
55	198
55	199
56	58
56	59
56	60
56	61
56	62
56	63
56	64
56	65
56	67
56	68
56	69
56	70
56	71
56	72
56	73
56	77
56	78
56	80
56	81
56	82
56	85
56	86
56	87
56	88
56	89
56	91
56	92
56	94
56	95
56	100
56	105
56	106
56	107
56	112
56	114
56	116
56	119
56	120
56	122
56	123
56	124
56	125
56	127
56	129
56	131
56	132
56	134
56	135
56	141
56	142
56	143
56	144
56	145
56	146
56	147
56	149
56	150
56	152
56	155
56	157
56	160
56	162
56	165
56	166
56	167
56	168
56	171
56	172
56	174
56	175
56	176
56	179
56	180
56	181
56	182
56	183
56	185
56	187
56	188
56	190
56	193
56	194
56	196
56	197
56	199
57	58
57	59
57	60
57	61
57	63
57	67
57	68
57	78
57	80
57	82
57	83
57	84
57	85
57	87
57	88
57	89
57	90
57	92
57	93
57	95
57	96
57	97
57	98
57	99
57	100
57	102
57	103
57	104
57	105
57	106
57	107
57	111
57	112
57	113
57	115
57	116
57	117
57	121
57	126
57	127
57	128
57	129
57	130
57	133
57	134
57	136
57	137
57	138
57	139
57	141
57	143
57	144
57	145
57	146
57	148
57	149
57	150
57	153
57	154
57	155
57	157
57	158
57	160
57	161
57	166
57	169
57	170
57	172
57	173
57	175
57	176
57	177
57	179
57	180
57	181
57	183
57	184
57	185
57	186
57	187
57	190
57	191
57	192
57	193
57	194
57	195
57	198
57	199
58	60
58	61
58	62
58	63
58	64
58	65
58	66
58	67
58	69
58	70
58	76
58	82
58	84
58	85
58	86
58	87
58	90
58	91
58	95
58	97
58	98
58	100
58	104
58	105
58	106
58	107
58	108
58	109
58	110
58	113
58	114
58	115
58	116
58	117
58	118
58	119
58	120
58	124
58	125
58	127
58	128
58	129
58	130
58	131
58	133
58	134
58	135
58	136
58	139
58	140
58	142
58	143
58	144
58	145
58	146
58	147
58	148
58	153
58	155
58	156
58	157
58	158
58	160
58	162
58	165
58	166
58	169
58	170
58	172
58	173
58	174
58	179
58	180
58	181
58	183
58	186
58	188
58	191
58	192
58	193
58	195
58	196
58	198
58	199
59	62
59	63
59	65
59	67
59	68
59	69
59	70
59	73
59	74
59	77
59	78
59	80
59	82
59	83
59	86
59	87
59	88
59	89
59	90
59	92
59	93
59	94
59	95
59	96
59	100
59	101
59	103
59	104
59	106
59	107
59	109
59	110
59	111
59	113
59	114
59	115
59	116
59	117
59	118
59	119
59	121
59	122
59	124
59	125
59	126
59	127
59	128
59	130
59	132
59	134
59	135
59	136
59	137
59	138
59	139
59	142
59	143
59	146
59	147
59	148
59	149
59	151
59	152
59	153
59	154
59	155
59	158
59	160
59	161
59	162
59	164
59	165
59	167
59	170
59	171
59	174
59	176
59	178
59	180
59	182
59	183
59	184
59	186
59	187
59	188
59	189
59	190
59	192
59	193
59	196
59	197
59	198
59	199
60	62
60	63
60	64
60	66
60	69
60	70
60	71
60	72
60	76
60	78
60	80
60	81
60	83
60	87
60	92
60	93
60	94
60	95
60	97
60	98
60	100
60	101
60	102
60	104
60	105
60	106
60	107
60	108
60	109
60	110
60	111
60	112
60	113
60	114
60	116
60	117
60	118
60	121
60	124
60	125
60	126
60	127
60	130
60	131
60	132
60	133
60	135
60	136
60	138
60	139
60	140
60	142
60	143
60	144
60	145
60	146
60	149
60	150
60	152
60	155
60	156
60	157
60	159
60	161
60	162
60	164
60	166
60	167
60	168
60	170
60	173
60	177
60	179
60	182
60	183
60	184
60	186
60	191
60	192
60	193
60	194
60	195
60	196
60	197
60	198
61	62
61	63
61	64
61	65
61	66
61	67
61	69
61	71
61	72
61	73
61	75
61	77
61	81
61	82
61	83
61	84
61	85
61	86
61	87
61	92
61	94
61	96
61	97
61	99
61	100
61	102
61	106
61	109
61	110
61	111
61	112
61	114
61	115
61	119
61	122
61	123
61	124
61	125
61	126
61	128
61	136
61	137
61	138
61	142
61	144
61	150
61	152
61	153
61	154
61	157
61	158
61	159
61	160
61	161
61	163
61	165
61	166
61	167
61	169
61	171
61	172
61	173
61	174
61	175
61	176
61	177
61	179
61	181
61	182
61	185
61	186
61	187
61	188
61	189
61	190
61	195
62	64
62	66
62	67
62	69
62	71
62	74
62	76
62	77
62	79
62	80
62	81
62	82
62	84
62	85
62	87
62	88
62	90
62	91
62	93
62	94
62	97
62	98
62	101
62	105
62	107
62	108
62	109
62	110
62	112
62	113
62	114
62	115
62	116
62	119
62	120
62	121
62	122
62	123
62	124
62	128
62	130
62	131
62	135
62	137
62	138
62	139
62	140
62	141
62	143
62	145
62	146
62	150
62	151
62	152
62	153
62	154
62	155
62	156
62	157
62	158
62	159
62	164
62	167
62	168
62	169
62	173
62	174
62	175
62	177
62	180
62	181
62	184
62	185
62	186
62	187
62	188
62	189
62	191
62	192
62	193
62	196
62	197
62	199
63	64
63	65
63	66
63	67
63	71
63	72
63	73
63	74
63	78
63	79
63	85
63	86
63	89
63	90
63	91
63	92
63	94
63	95
63	97
63	98
63	100
63	103
63	106
63	110
63	111
63	115
63	116
63	117
63	122
63	124
63	126
63	128
63	129
63	131
63	132
63	133
63	136
63	137
63	138
63	141
63	142
63	143
63	145
63	146
63	147
63	149
63	150
63	151
63	152
63	158
63	159
63	161
63	162
63	165
63	166
63	167
63	168
63	169
63	170
63	172
63	173
63	174
63	175
63	176
63	179
63	180
63	181
63	183
63	184
63	185
63	186
63	187
63	188
63	189
63	191
63	193
63	194
63	198
63	199
64	65
64	66
64	68
64	69
64	70
64	71
64	72
64	74
64	75
64	77
64	78
64	79
64	80
64	81
64	83
64	84
64	85
64	89
64	91
64	92
64	93
64	94
64	97
64	99
64	101
64	102
64	103
64	104
64	106
64	108
64	110
64	112
64	114
64	115
64	116
64	117
64	118
64	120
64	121
64	122
64	125
64	126
64	130
64	131
64	133
64	134
64	136
64	138
64	139
64	140
64	141
64	142
64	143
64	145
64	146
64	148
64	151
64	152
64	156
64	158
64	160
64	161
64	164
64	165
64	166
64	167
64	169
64	170
64	171
64	172
64	173
64	175
64	176
64	178
64	180
64	181
64	182
64	183
64	186
64	187
64	188
64	189
64	190
64	191
64	193
64	196
64	198
64	199
65	67
65	68
65	69
65	74
65	75
65	76
65	78
65	81
65	82
65	84
65	85
65	87
65	89
65	90
65	91
65	92
65	93
65	95
65	96
65	97
65	98
65	99
65	100
65	101
65	103
65	104
65	105
65	106
65	108
65	109
65	110
65	111
65	112
65	114
65	115
65	116
65	117
65	120
65	121
65	122
65	123
65	124
65	125
65	127
65	129
65	131
65	132
65	133
65	135
65	136
65	137
65	139
65	140
65	141
65	144
65	145
65	146
65	148
65	155
65	157
65	164
65	166
65	167
65	170
65	171
65	173
65	174
65	176
65	177
65	179
65	181
65	183
65	184
65	189
65	190
65	192
65	193
65	194
65	195
65	197
65	198
66	68
66	71
66	72
66	75
66	77
66	78
66	80
66	82
66	83
66	84
66	86
66	87
66	89
66	91
66	93
66	95
66	97
66	99
66	101
66	102
66	103
66	104
66	106
66	107
66	108
66	111
66	112
66	113
66	115
66	116
66	118
66	120
66	121
66	123
66	124
66	125
66	128
66	129
66	130
66	134
66	135
66	136
66	137
66	139
66	140
66	142
66	145
66	146
66	151
66	153
66	155
66	156
66	157
66	159
66	160
66	163
66	166
66	167
66	168
66	170
66	171
66	172
66	175
66	176
66	178
66	181
66	183
66	185
66	186
66	187
66	188
66	189
66	190
66	193
66	194
66	195
66	197
66	198
67	69
67	70
67	72
67	73
67	74
67	75
67	76
67	77
67	85
67	87
67	88
67	89
67	91
67	92
67	95
67	97
67	98
67	100
67	101
67	102
67	104
67	105
67	106
67	114
67	116
67	117
67	118
67	121
67	124
67	125
67	128
67	129
67	133
67	135
67	136
67	137
67	138
67	140
67	141
67	142
67	143
67	144
67	146
67	147
67	148
67	149
67	150
67	155
67	156
67	157
67	159
67	160
67	161
67	162
67	164
67	167
67	168
67	170
67	171
67	172
67	173
67	174
67	175
67	178
67	179
67	180
67	184
67	185
67	188
67	189
67	190
67	195
67	197
68	69
68	70
68	72
68	73
68	74
68	75
68	78
68	82
68	84
68	87
68	89
68	91
68	92
68	93
68	94
68	95
68	97
68	98
68	99
68	101
68	102
68	106
68	108
68	110
68	111
68	112
68	113
68	114
68	118
68	119
68	121
68	122
68	124
68	126
68	129
68	131
68	132
68	133
68	134
68	135
68	136
68	137
68	138
68	139
68	140
68	141
68	143
68	149
68	152
68	153
68	155
68	156
68	158
68	159
68	161
68	164
68	165
68	166
68	168
68	169
68	170
68	172
68	174
68	175
68	177
68	178
68	179
68	183
68	188
68	191
68	192
68	193
68	194
68	196
68	197
68	198
68	199
69	70
69	71
69	73
69	79
69	80
69	81
69	82
69	83
69	86
69	89
69	90
69	92
69	93
69	96
69	100
69	102
69	105
69	106
69	107
69	108
69	110
69	111
69	112
69	113
69	116
69	118
69	119
69	120
69	122
69	125
69	129
69	130
69	131
69	132
69	135
69	136
69	138
69	140
69	141
69	143
69	148
69	152
69	155
69	156
69	158
69	161
69	162
69	165
69	167
69	168
69	170
69	171
69	172
69	176
69	182
69	183
69	185
69	186
69	187
69	188
69	190
69	191
69	193
69	194
69	196
69	197
69	199
70	72
70	73
70	74
70	75
70	76
70	77
70	78
70	80
70	82
70	83
70	84
70	85
70	86
70	87
70	88
70	89
70	90
70	91
70	92
70	94
70	98
70	101
70	102
70	103
70	105
70	106
70	108
70	112
70	113
70	114
70	116
70	117
70	119
70	121
70	122
70	123
70	125
70	126
70	127
70	129
70	130
70	131
70	132
70	135
70	137
70	139
70	140
70	141
70	142
70	144
70	145
70	153
70	154
70	155
70	159
70	160
70	164
70	165
70	166
70	167
70	168
70	169
70	172
70	173
70	174
70	175
70	176
70	177
70	178
70	182
70	183
70	184
70	185
70	187
70	189
70	190
70	191
70	192
70	193
70	194
70	195
70	198
70	199
71	73
71	74
71	75
71	76
71	77
71	78
71	79
71	82
71	83
71	84
71	85
71	86
71	89
71	91
71	92
71	94
71	95
71	100
71	101
71	102
71	103
71	104
71	107
71	108
71	109
71	111
71	113
71	114
71	115
71	117
71	118
71	120
71	121
71	124
71	127
71	128
71	129
71	130
71	131
71	132
71	136
71	137
71	138
71	139
71	140
71	143
71	144
71	148
71	149
71	150
71	151
71	152
71	153
71	154
71	157
71	160
71	161
71	162
71	163
71	164
71	165
71	166
71	168
71	170
71	171
71	173
71	174
71	175
71	177
71	179
71	180
71	182
71	185
71	188
71	190
71	196
71	197
71	198
71	199
72	73
72	74
72	75
72	77
72	78
72	80
72	83
72	85
72	86
72	87
72	90
72	91
72	92
72	93
72	96
72	97
72	100
72	101
72	102
72	104
72	107
72	115
72	116
72	118
72	119
72	120
72	121
72	127
72	128
72	130
72	131
72	132
72	133
72	134
72	136
72	137
72	138
72	140
72	142
72	144
72	146
72	147
72	148
72	150
72	151
72	153
72	154
72	156
72	157
72	160
72	161
72	165
72	166
72	167
72	168
72	170
72	173
72	174
72	175
72	176
72	177
72	179
72	180
72	181
72	182
72	183
72	186
72	189
72	190
72	191
72	192
72	193
72	194
72	197
72	198
72	199
73	74
73	76
73	77
73	83
73	85
73	88
73	90
73	91
73	93
73	94
73	97
73	98
73	99
73	101
73	103
73	105
73	106
73	109
73	111
73	112
73	115
73	116
73	122
73	123
73	125
73	127
73	128
73	129
73	131
73	133
73	137
73	138
73	139
73	144
73	145
73	146
73	147
73	149
73	150
73	151
73	152
73	153
73	155
73	156
73	159
73	160
73	161
73	162
73	163
73	165
73	166
73	167
73	168
73	174
73	176
73	177
73	179
73	180
73	181
73	182
73	184
73	185
73	187
73	188
73	190
73	191
73	193
73	194
73	196
73	198
74	75
74	76
74	78
74	80
74	82
74	83
74	86
74	88
74	89
74	90
74	91
74	93
74	97
74	98
74	99
74	100
74	101
74	105
74	106
74	108
74	113
74	114
74	116
74	117
74	118
74	119
74	120
74	122
74	124
74	127
74	129
74	130
74	133
74	134
74	135
74	136
74	138
74	139
74	140
74	143
74	144
74	145
74	146
74	147
74	149
74	150
74	151
74	152
74	153
74	155
74	158
74	159
74	160
74	161
74	162
74	163
74	164
74	166
74	170
74	171
74	173
74	175
74	176
74	177
74	178
74	180
74	182
74	184
74	186
74	187
74	188
74	189
74	191
74	192
74	193
74	194
74	196
74	198
74	199
75	76
75	78
75	79
75	80
75	81
75	82
75	83
75	84
75	85
75	87
75	89
75	90
75	91
75	92
75	93
75	94
75	95
75	96
75	97
75	100
75	101
75	102
75	105
75	106
75	109
75	110
75	111
75	114
75	115
75	116
75	120
75	122
75	125
75	126
75	127
75	128
75	129
75	130
75	132
75	133
75	134
75	135
75	136
75	137
75	138
75	141
75	142
75	146
75	147
75	149
75	150
75	151
75	156
75	157
75	159
75	160
75	161
75	163
75	164
75	165
75	167
75	168
75	173
75	177
75	178
75	180
75	182
75	183
75	184
75	185
75	190
75	191
75	195
75	196
75	197
76	77
76	78
76	80
76	81
76	82
76	83
76	84
76	89
76	90
76	91
76	92
76	93
76	94
76	100
76	103
76	108
76	109
76	110
76	111
76	112
76	113
76	115
76	116
76	119
76	122
76	126
76	128
76	129
76	130
76	136
76	137
76	138
76	139
76	140
76	142
76	144
76	145
76	146
76	148
76	149
76	150
76	151
76	152
76	153
76	154
76	156
76	157
76	159
76	160
76	162
76	163
76	164
76	166
76	167
76	170
76	171
76	173
76	174
76	175
76	177
76	179
76	182
76	185
76	187
76	188
76	189
76	191
76	192
76	193
76	194
76	199
77	78
77	79
77	80
77	81
77	83
77	84
77	85
77	87
77	88
77	89
77	91
77	93
77	95
77	96
77	97
77	98
77	99
77	101
77	105
77	106
77	107
77	108
77	111
77	112
77	114
77	116
77	117
77	122
77	124
77	125
77	127
77	132
77	133
77	134
77	135
77	136
77	137
77	139
77	140
77	142
77	143
77	144
77	145
77	147
77	148
77	153
77	154
77	155
77	156
77	158
77	159
77	161
77	162
77	164
77	169
77	170
77	173
77	176
77	178
77	179
77	180
77	181
77	182
77	183
77	189
77	191
77	192
77	193
77	194
77	195
77	196
77	197
77	198
78	81
78	83
78	84
78	85
78	86
78	88
78	91
78	93
78	94
78	95
78	96
78	97
78	98
78	99
78	100
78	105
78	106
78	107
78	108
78	109
78	110
78	111
78	112
78	113
78	114
78	116
78	117
78	119
78	120
78	121
78	122
78	123
78	126
78	130
78	131
78	132
78	133
78	134
78	138
78	147
78	149
78	150
78	152
78	156
78	159
78	162
78	163
78	165
78	170
78	171
78	172
78	173
78	176
78	177
78	178
78	179
78	183
78	184
78	185
78	188
78	189
78	190
78	191
78	192
78	193
78	195
78	197
78	198
78	199
79	80
79	82
79	83
79	84
79	85
79	86
79	88
79	89
79	95
79	96
79	99
79	100
79	101
79	102
79	106
79	108
79	109
79	110
79	113
79	114
79	116
79	118
79	119
79	120
79	121
79	123
79	124
79	126
79	128
79	129
79	131
79	132
79	133
79	134
79	135
79	137
79	138
79	140
79	141
79	142
79	143
79	144
79	145
79	146
79	148
79	149
79	150
79	151
79	152
79	155
79	159
79	164
79	168
79	169
79	170
79	171
79	172
79	174
79	175
79	176
79	177
79	178
79	179
79	180
79	181
79	182
79	185
79	186
79	187
79	190
79	191
79	193
79	194
79	196
79	197
79	198
79	199
80	81
80	82
80	84
80	86
80	87
80	88
80	89
80	90
80	91
80	96
80	97
80	101
80	102
80	104
80	105
80	106
80	107
80	108
80	109
80	110
80	111
80	112
80	114
80	115
80	116
80	117
80	118
80	120
80	122
80	124
80	126
80	127
80	128
80	129
80	131
80	132
80	134
80	135
80	136
80	137
80	138
80	140
80	142
80	143
80	144
80	145
80	146
80	147
80	148
80	149
80	150
80	154
80	155
80	157
80	158
80	159
80	160
80	161
80	164
80	170
80	172
80	175
80	178
80	179
80	180
80	181
80	182
80	183
80	185
80	187
80	188
80	191
80	192
80	194
80	195
80	196
80	197
80	198
80	199
81	82
81	83
81	86
81	88
81	89
81	90
81	91
81	92
81	94
81	95
81	96
81	97
81	100
81	102
81	105
81	107
81	109
81	110
81	111
81	114
81	117
81	120
81	121
81	122
81	124
81	125
81	126
81	128
81	133
81	134
81	137
81	139
81	141
81	144
81	145
81	146
81	147
81	151
81	153
81	154
81	159
81	160
81	162
81	163
81	164
81	165
81	166
81	169
81	171
81	172
81	173
81	174
81	175
81	176
81	177
81	178
81	179
81	180
81	181
81	182
81	183
81	184
81	185
81	187
81	191
81	193
81	194
81	195
81	196
81	197
81	198
81	199
82	85
82	87
82	88
82	89
82	91
82	92
82	94
82	95
82	97
82	98
82	99
82	100
82	103
82	105
82	107
82	108
82	112
82	113
82	114
82	117
82	120
82	121
82	123
82	125
82	126
82	128
82	132
82	133
82	134
82	135
82	136
82	140
82	141
82	144
82	145
82	146
82	148
82	149
82	150
82	151
82	152
82	153
82	154
82	155
82	156
82	158
82	159
82	161
82	164
82	165
82	168
82	169
82	170
82	171
82	172
82	173
82	174
82	176
82	177
82	180
82	181
82	182
82	183
82	185
82	186
82	187
82	188
82	189
82	190
82	192
82	193
82	194
82	196
82	197
83	84
83	85
83	86
83	90
83	91
83	92
83	96
83	97
83	101
83	102
83	103
83	104
83	105
83	107
83	108
83	110
83	111
83	112
83	114
83	116
83	117
83	118
83	119
83	121
83	122
83	123
83	124
83	126
83	128
83	129
83	130
83	135
83	136
83	137
83	141
83	142
83	143
83	147
83	148
83	149
83	151
83	152
83	156
83	157
83	158
83	161
83	162
83	163
83	165
83	166
83	169
83	171
83	172
83	174
83	175
83	176
83	177
83	180
83	181
83	182
83	184
83	185
83	187
83	189
83	190
83	193
83	195
83	196
83	197
83	198
84	88
84	90
84	91
84	92
84	93
84	95
84	96
84	98
84	100
84	101
84	102
84	105
84	106
84	107
84	108
84	109
84	110
84	113
84	115
84	119
84	120
84	121
84	122
84	123
84	125
84	126
84	127
84	129
84	131
84	132
84	135
84	136
84	137
84	138
84	139
84	142
84	144
84	145
84	146
84	147
84	148
84	150
84	152
84	155
84	156
84	158
84	159
84	160
84	163
84	164
84	165
84	167
84	168
84	169
84	171
84	172
84	174
84	175
84	176
84	179
84	180
84	181
84	183
84	185
84	186
84	187
84	188
84	189
84	190
84	192
84	193
84	194
84	195
84	196
85	86
85	87
85	88
85	89
85	90
85	92
85	93
85	94
85	95
85	96
85	97
85	99
85	100
85	104
85	105
85	106
85	107
85	109
85	110
85	111
85	113
85	116
85	118
85	119
85	120
85	121
85	122
85	125
85	126
85	127
85	130
85	132
85	134
85	139
85	140
85	142
85	143
85	144
85	145
85	146
85	147
85	150
85	151
85	152
85	153
85	155
85	156
85	158
85	159
85	160
85	161
85	162
85	167
85	168
85	172
85	173
85	174
85	175
85	177
85	178
85	180
85	181
85	182
85	185
85	186
85	187
85	188
85	190
85	191
85	192
85	194
85	195
85	197
85	198
85	199
86	89
86	92
86	93
86	97
86	98
86	100
86	101
86	102
86	103
86	104
86	106
86	107
86	108
86	109
86	111
86	112
86	114
86	115
86	116
86	119
86	122
86	123
86	125
86	126
86	127
86	129
86	130
86	131
86	133
86	138
86	139
86	140
86	141
86	142
86	144
86	146
86	147
86	148
86	151
86	152
86	153
86	154
86	156
86	157
86	161
86	164
86	165
86	167
86	168
86	169
86	170
86	172
86	173
86	174
86	175
86	176
86	179
86	181
86	182
86	183
86	186
86	187
86	188
86	189
86	193
86	194
86	195
86	196
86	197
86	198
87	90
87	91
87	92
87	93
87	94
87	95
87	96
87	97
87	98
87	99
87	101
87	104
87	105
87	106
87	108
87	110
87	111
87	114
87	115
87	116
87	117
87	118
87	119
87	121
87	122
87	123
87	124
87	125
87	126
87	127
87	129
87	130
87	133
87	134
87	141
87	142
87	146
87	147
87	148
87	150
87	151
87	156
87	157
87	158
87	159
87	161
87	163
87	164
87	168
87	170
87	172
87	173
87	175
87	176
87	179
87	182
87	184
87	185
87	188
87	191
87	192
87	193
87	195
87	196
87	198
87	199
88	89
88	91
88	92
88	93
88	94
88	95
88	98
88	100
88	101
88	102
88	103
88	104
88	109
88	110
88	111
88	112
88	113
88	114
88	115
88	116
88	117
88	119
88	120
88	121
88	124
88	127
88	128
88	130
88	133
88	134
88	136
88	137
88	141
88	142
88	143
88	144
88	147
88	148
88	149
88	150
88	152
88	153
88	160
88	161
88	162
88	163
88	164
88	166
88	167
88	168
88	169
88	170
88	171
88	173
88	174
88	175
88	177
88	178
88	180
88	182
88	185
88	186
88	187
88	189
88	190
88	192
88	194
88	196
88	198
89	90
89	91
89	92
89	93
89	96
89	97
89	99
89	101
89	102
89	104
89	105
89	107
89	108
89	110
89	111
89	112
89	113
89	115
89	116
89	117
89	119
89	120
89	121
89	122
89	123
89	124
89	126
89	129
89	134
89	136
89	137
89	139
89	142
89	144
89	146
89	147
89	148
89	150
89	151
89	154
89	158
89	159
89	160
89	161
89	162
89	163
89	164
89	165
89	166
89	167
89	169
89	170
89	172
89	173
89	175
89	176
89	177
89	178
89	179
89	182
89	183
89	185
89	187
89	190
89	191
89	194
89	195
89	196
89	199
90	91
90	99
90	100
90	102
90	103
90	105
90	106
90	107
90	108
90	109
90	110
90	112
90	114
90	115
90	117
90	119
90	121
90	122
90	124
90	125
90	126
90	128
90	129
90	132
90	133
90	136
90	137
90	138
90	139
90	140
90	141
90	142
90	144
90	146
90	147
90	150
90	151
90	154
90	155
90	159
90	163
90	164
90	165
90	171
90	172
90	173
90	175
90	176
90	178
90	180
90	181
90	184
90	185
90	186
90	187
90	189
90	191
90	192
90	194
90	195
90	197
90	199
91	94
91	95
91	96
91	98
91	99
91	100
91	105
91	108
91	111
91	112
91	113
91	114
91	117
91	118
91	120
91	122
91	123
91	126
91	127
91	128
91	129
91	130
91	131
91	132
91	133
91	134
91	135
91	136
91	137
91	138
91	139
91	140
91	141
91	143
91	145
91	148
91	150
91	155
91	156
91	157
91	159
91	160
91	161
91	163
91	164
91	166
91	167
91	170
91	173
91	174
91	175
91	177
91	179
91	180
91	181
91	182
91	185
91	186
91	187
91	191
91	193
91	195
91	197
91	198
92	97
92	99
92	100
92	101
92	102
92	103
92	106
92	107
92	108
92	110
92	112
92	117
92	118
92	120
92	121
92	122
92	123
92	124
92	125
92	126
92	127
92	133
92	134
92	135
92	136
92	138
92	142
92	144
92	146
92	147
92	148
92	153
92	154
92	155
92	157
92	158
92	159
92	160
92	161
92	163
92	166
92	167
92	169
92	170
92	171
92	172
92	174
92	175
92	178
92	182
92	183
92	184
92	186
92	187
92	188
92	189
92	190
92	191
92	192
92	193
92	198
92	199
93	96
93	97
93	98
93	99
93	101
93	102
93	104
93	105
93	106
93	107
93	108
93	109
93	111
93	112
93	113
93	119
93	121
93	122
93	123
93	125
93	127
93	130
93	131
93	133
93	134
93	135
93	136
93	137
93	138
93	140
93	141
93	143
93	144
93	145
93	147
93	148
93	151
93	152
93	153
93	155
93	156
93	159
93	160
93	165
93	167
93	172
93	173
93	175
93	176
93	179
93	182
93	183
93	184
93	186
93	187
93	189
93	191
93	194
93	195
93	196
94	97
94	99
94	100
94	102
94	103
94	105
94	106
94	107
94	108
94	109
94	110
94	112
94	113
94	114
94	115
94	117
94	118
94	120
94	123
94	127
94	128
94	130
94	131
94	132
94	134
94	137
94	138
94	139
94	142
94	143
94	144
94	145
94	147
94	149
94	150
94	152
94	153
94	154
94	155
94	156
94	158
94	160
94	162
94	163
94	164
94	169
94	171
94	172
94	174
94	175
94	176
94	180
94	181
94	182
94	183
94	184
94	185
94	186
94	187
94	188
94	189
94	190
94	192
94	195
94	197
94	199
95	96
95	98
95	99
95	100
95	102
95	103
95	104
95	106
95	107
95	108
95	110
95	111
95	112
95	114
95	117
95	118
95	120
95	121
95	123
95	124
95	125
95	127
95	128
95	129
95	130
95	132
95	134
95	135
95	136
95	138
95	139
95	144
95	145
95	146
95	147
95	149
95	150
95	151
95	152
95	153
95	154
95	155
95	156
95	159
95	162
95	164
95	165
95	167
95	168
95	169
95	171
95	172
95	174
95	175
95	176
95	177
95	180
95	183
95	184
95	185
95	189
95	191
95	192
95	193
95	194
95	195
95	196
96	97
96	98
96	100
96	101
96	103
96	104
96	106
96	110
96	112
96	113
96	115
96	117
96	118
96	119
96	120
96	121
96	123
96	124
96	125
96	128
96	129
96	132
96	134
96	135
96	138
96	139
96	140
96	143
96	146
96	148
96	151
96	152
96	153
96	155
96	156
96	157
96	164
96	165
96	172
96	174
96	175
96	176
96	177
96	179
96	183
96	185
96	186
96	187
96	188
96	189
96	193
96	195
96	196
96	198
97	102
97	103
97	104
97	108
97	111
97	112
97	116
97	117
97	118
97	119
97	120
97	122
97	124
97	126
97	127
97	129
97	130
97	131
97	132
97	133
97	135
97	136
97	137
97	138
97	139
97	140
97	143
97	144
97	145
97	150
97	151
97	153
97	157
97	158
97	159
97	160
97	161
97	163
97	165
97	166
97	167
97	171
97	172
97	173
97	174
97	176
97	177
97	178
97	179
97	180
97	181
97	183
97	184
97	189
97	190
97	191
97	193
97	195
97	196
97	197
97	199
98	99
98	102
98	103
98	105
98	107
98	108
98	110
98	111
98	113
98	116
98	119
98	120
98	122
98	123
98	124
98	126
98	130
98	132
98	133
98	134
98	136
98	137
98	138
98	139
98	140
98	141
98	143
98	144
98	147
98	150
98	152
98	154
98	156
98	157
98	162
98	163
98	164
98	168
98	169
98	170
98	171
98	172
98	174
98	178
98	180
98	181
98	182
98	183
98	184
98	190
98	191
98	192
98	193
98	194
98	198
98	199
99	100
99	102
99	103
99	104
99	109
99	110
99	111
99	113
99	114
99	115
99	116
99	118
99	119
99	120
99	122
99	123
99	124
99	128
99	129
99	130
99	132
99	136
99	137
99	138
99	139
99	141
99	147
99	149
99	150
99	152
99	153
99	154
99	156
99	157
99	159
99	160
99	162
99	164
99	166
99	167
99	169
99	170
99	171
99	172
99	173
99	175
99	176
99	177
99	178
99	179
99	180
99	182
99	183
99	185
99	187
99	188
99	189
99	191
99	193
99	194
99	195
99	196
99	197
99	198
100	101
100	105
100	107
100	108
100	109
100	110
100	112
100	113
100	115
100	116
100	117
100	118
100	120
100	121
100	124
100	125
100	126
100	128
100	130
100	131
100	132
100	133
100	136
100	138
100	139
100	141
100	144
100	145
100	146
100	147
100	151
100	152
100	153
100	155
100	157
100	160
100	162
100	163
100	164
100	165
100	169
100	171
100	173
100	174
100	175
100	176
100	178
100	181
100	182
100	183
100	184
100	185
100	186
100	187
100	188
100	189
100	190
100	192
100	193
100	194
100	197
100	198
101	103
101	104
101	105
101	106
101	107
101	109
101	112
101	116
101	119
101	120
101	121
101	122
101	123
101	124
101	127
101	129
101	130
101	131
101	132
101	133
101	135
101	136
101	137
101	138
101	140
101	141
101	143
101	145
101	146
101	147
101	149
101	153
101	154
101	155
101	156
101	158
101	160
101	162
101	163
101	164
101	165
101	166
101	170
101	171
101	173
101	174
101	175
101	176
101	177
101	178
101	179
101	180
101	181
101	185
101	186
101	187
101	190
102	104
102	105
102	106
102	107
102	108
102	111
102	112
102	115
102	116
102	117
102	118
102	119
102	121
102	123
102	124
102	125
102	126
102	127
102	128
102	131
102	132
102	133
102	134
102	139
102	142
102	143
102	144
102	145
102	146
102	147
102	149
102	150
102	151
102	153
102	158
102	159
102	161
102	163
102	164
102	165
102	167
102	168
102	170
102	172
102	176
102	177
102	178
102	179
102	180
102	182
102	183
102	184
102	187
102	188
102	189
102	190
102	191
102	192
102	194
102	195
102	196
102	199
103	104
103	105
103	107
103	109
103	110
103	115
103	116
103	117
103	118
103	119
103	121
103	123
103	125
103	127
103	128
103	129
103	130
103	132
103	133
103	135
103	136
103	137
103	138
103	140
103	141
103	142
103	143
103	145
103	149
103	150
103	152
103	154
103	155
103	157
103	159
103	161
103	162
103	164
103	166
103	168
103	169
103	171
103	172
103	173
103	174
103	175
103	176
103	177
103	179
103	180
103	181
103	183
103	185
103	186
103	187
103	188
103	191
103	192
103	194
103	195
103	197
103	198
103	199
104	105
104	107
104	108
104	111
104	112
104	114
104	115
104	118
104	119
104	121
104	122
104	123
104	125
104	126
104	127
104	128
104	129
104	130
104	132
104	133
104	136
104	137
104	138
104	139
104	140
104	141
104	142
104	143
104	145
104	146
104	148
104	149
104	151
104	152
104	153
104	154
104	155
104	158
104	164
104	166
104	167
104	168
104	169
104	173
104	175
104	176
104	177
104	178
104	179
104	180
104	181
104	182
104	183
104	184
104	185
104	186
104	187
104	189
104	191
104	192
104	193
104	197
104	198
104	199
105	106
105	107
105	108
105	109
105	110
105	111
105	112
105	114
105	115
105	117
105	119
105	121
105	122
105	123
105	124
105	125
105	126
105	127
105	128
105	129
105	130
105	131
105	132
105	135
105	137
105	138
105	140
105	142
105	145
105	146
105	149
105	150
105	151
105	152
105	153
105	154
105	156
105	157
105	158
105	159
105	160
105	161
105	163
105	164
105	165
105	170
105	172
105	173
105	174
105	175
105	176
105	177
105	178
105	179
105	180
105	182
105	183
105	185
105	186
105	187
105	188
105	189
105	190
105	192
105	193
105	194
105	198
106	107
106	108
106	109
106	111
106	112
106	115
106	118
106	119
106	121
106	122
106	123
106	124
106	126
106	127
106	128
106	131
106	133
106	134
106	135
106	137
106	138
106	139
106	141
106	142
106	143
106	145
106	146
106	150
106	151
106	153
106	154
106	155
106	157
106	158
106	160
106	161
106	163
106	168
106	170
106	172
106	173
106	175
106	178
106	179
106	180
106	181
106	183
106	186
106	188
106	189
106	191
106	192
106	194
106	197
106	198
107	109
107	110
107	111
107	113
107	114
107	116
107	117
107	118
107	123
107	124
107	127
107	128
107	130
107	131
107	133
107	137
107	138
107	139
107	140
107	141
107	142
107	144
107	145
107	146
107	147
107	149
107	151
107	154
107	155
107	158
107	160
107	161
107	162
107	164
107	168
107	169
107	170
107	171
107	172
107	173
107	175
107	176
107	179
107	180
107	181
107	182
107	183
107	186
107	188
107	189
107	190
107	191
107	192
107	193
107	195
107	196
107	197
107	198
107	199
108	109
108	110
108	112
108	113
108	114
108	115
108	116
108	117
108	118
108	119
108	120
108	124
108	125
108	126
108	133
108	134
108	136
108	137
108	139
108	140
108	141
108	142
108	143
108	145
108	148
108	149
108	150
108	152
108	154
108	158
108	162
108	163
108	167
108	168
108	169
108	172
108	174
108	175
108	178
108	181
108	185
108	187
108	188
108	189
108	192
108	194
108	195
108	196
108	197
108	198
109	110
109	111
109	112
109	113
109	115
109	116
109	117
109	119
109	120
109	122
109	125
109	127
109	129
109	130
109	132
109	133
109	137
109	139
109	140
109	141
109	142
109	143
109	146
109	149
109	151
109	152
109	153
109	156
109	158
109	159
109	160
109	162
109	166
109	167
109	168
109	169
109	170
109	171
109	172
109	174
109	175
109	176
109	177
109	179
109	180
109	181
109	186
109	187
109	188
109	189
109	190
109	193
109	194
109	198
109	199
110	111
110	112
110	115
110	116
110	117
110	120
110	124
110	126
110	127
110	128
110	129
110	130
110	131
110	132
110	134
110	135
110	136
110	138
110	139
110	141
110	144
110	146
110	147
110	150
110	151
110	152
110	157
110	159
110	160
110	161
110	162
110	163
110	165
110	166
110	171
110	172
110	175
110	176
110	177
110	178
110	179
110	180
110	181
110	182
110	183
110	184
110	185
110	187
110	188
110	189
110	191
110	192
110	193
110	194
110	195
110	197
110	198
111	113
111	115
111	116
111	118
111	119
111	121
111	122
111	123
111	124
111	125
111	128
111	130
111	131
111	132
111	133
111	134
111	136
111	137
111	141
111	143
111	144
111	145
111	146
111	147
111	148
111	149
111	153
111	154
111	155
111	157
111	158
111	159
111	161
111	162
111	163
111	164
111	166
111	167
111	168
111	169
111	170
111	172
111	173
111	174
111	175
111	176
111	177
111	178
111	179
111	180
111	181
111	182
111	183
111	187
111	189
111	191
111	193
111	194
111	196
111	197
111	199
112	114
112	115
112	120
112	121
112	126
112	127
112	130
112	131
112	134
112	136
112	137
112	139
112	140
112	141
112	142
112	144
112	146
112	148
112	149
112	150
112	151
112	153
112	154
112	155
112	156
112	159
112	160
112	162
112	163
112	167
112	170
112	171
112	174
112	175
112	177
112	178
112	180
112	181
112	184
112	185
112	187
112	189
112	191
112	192
112	193
112	194
112	195
112	196
112	198
113	115
113	116
113	117
113	119
113	120
113	121
113	122
113	124
113	125
113	126
113	129
113	132
113	135
113	138
113	139
113	140
113	141
113	142
113	143
113	145
113	146
113	147
113	152
113	153
113	154
113	156
113	162
113	163
113	164
113	166
113	167
113	169
113	170
113	172
113	173
113	174
113	177
113	178
113	179
113	181
113	183
113	184
113	185
113	188
113	189
113	190
113	191
113	192
113	196
113	197
114	116
114	117
114	118
114	119
114	121
114	122
114	124
114	125
114	127
114	128
114	129
114	130
114	131
114	132
114	134
114	138
114	140
114	141
114	142
114	145
114	146
114	148
114	149
114	150
114	151
114	152
114	153
114	155
114	156
114	157
114	158
114	159
114	160
114	161
114	164
114	165
114	166
114	168
114	171
114	174
114	177
114	178
114	181
114	182
114	183
114	184
114	186
114	187
114	188
114	189
114	190
114	191
114	192
114	193
114	194
115	118
115	119
115	123
115	126
115	127
115	131
115	132
115	133
115	135
115	137
115	139
115	140
115	141
115	143
115	144
115	145
115	146
115	147
115	151
115	152
115	153
115	154
115	155
115	156
115	157
115	158
115	161
115	162
115	163
115	164
115	165
115	166
115	167
115	168
115	170
115	176
115	177
115	179
115	180
115	181
115	183
115	184
115	185
115	188
115	189
115	190
115	192
115	196
115	197
115	199
116	118
116	120
116	121
116	124
116	127
116	128
116	131
116	132
116	135
116	136
116	138
116	140
116	141
116	143
116	145
116	146
116	150
116	151
116	153
116	154
116	155
116	156
116	158
116	159
116	160
116	161
116	163
116	164
116	165
116	166
116	168
116	172
116	174
116	175
116	177
116	178
116	179
116	182
116	183
116	188
116	189
116	195
116	196
116	197
116	198
117	122
117	126
117	128
117	129
117	131
117	133
117	135
117	136
117	139
117	140
117	143
117	146
117	148
117	149
117	152
117	153
117	157
117	158
117	159
117	162
117	166
117	167
117	168
117	169
117	170
117	171
117	172
117	173
117	175
117	176
117	177
117	178
117	181
117	182
117	183
117	189
117	190
117	191
117	194
117	195
118	122
118	123
118	125
118	126
118	127
118	129
118	130
118	132
118	137
118	139
118	140
118	141
118	142
118	144
118	145
118	147
118	148
118	150
118	152
118	153
118	156
118	159
118	160
118	164
118	166
118	167
118	168
118	171
118	173
118	175
118	176
118	179
118	182
118	183
118	187
118	188
118	189
118	191
118	192
118	193
118	194
118	195
118	197
119	122
119	123
119	125
119	126
119	127
119	128
119	130
119	131
119	132
119	134
119	135
119	137
119	140
119	141
119	142
119	143
119	144
119	145
119	146
119	147
119	149
119	150
119	151
119	152
119	153
119	154
119	155
119	156
119	157
119	160
119	161
119	162
119	163
119	164
119	165
119	166
119	170
119	173
119	175
119	180
119	181
119	182
119	183
119	184
119	185
119	186
119	187
119	188
119	189
119	191
119	192
119	193
119	194
119	195
119	197
119	198
120	121
120	122
120	123
120	124
120	125
120	127
120	129
120	131
120	133
120	134
120	135
120	136
120	137
120	138
120	139
120	140
120	142
120	147
120	150
120	151
120	152
120	153
120	154
120	155
120	157
120	158
120	163
120	164
120	167
120	168
120	169
120	171
120	172
120	175
120	177
120	178
120	179
120	181
120	182
120	183
120	184
120	185
120	186
120	187
120	189
120	190
120	192
120	193
120	195
120	196
120	197
120	198
121	122
121	124
121	126
121	130
121	132
121	133
121	137
121	139
121	141
121	142
121	145
121	146
121	149
121	151
121	152
121	153
121	154
121	155
121	156
121	158
121	159
121	160
121	164
121	165
121	168
121	169
121	170
121	172
121	174
121	175
121	176
121	179
121	180
121	181
121	182
121	185
121	187
121	189
121	191
121	194
121	195
121	196
121	199
122	124
122	125
122	128
122	129
122	130
122	131
122	133
122	134
122	135
122	136
122	137
122	138
122	139
122	141
122	142
122	145
122	148
122	149
122	153
122	155
122	156
122	157
122	161
122	162
122	164
122	165
122	167
122	168
122	170
122	173
122	175
122	176
122	179
122	180
122	181
122	183
122	184
122	185
122	186
122	188
122	189
122	191
122	192
122	193
122	195
122	197
122	199
123	124
123	126
123	129
123	130
123	132
123	134
123	135
123	136
123	137
123	138
123	139
123	140
123	143
123	144
123	145
123	146
123	148
123	149
123	151
123	152
123	153
123	155
123	158
123	159
123	160
123	161
123	163
123	164
123	166
123	170
123	171
123	172
123	174
123	179
123	181
123	183
123	185
123	189
123	191
123	192
123	194
123	195
123	196
123	197
123	198
124	125
124	126
124	127
124	128
124	129
124	130
124	131
124	133
124	134
124	135
124	136
124	137
124	138
124	139
124	141
124	142
124	143
124	145
124	146
124	148
124	149
124	150
124	151
124	152
124	153
124	155
124	156
124	158
124	159
124	165
124	166
124	167
124	169
124	170
124	173
124	174
124	176
124	183
124	186
124	187
124	188
124	190
124	191
124	193
124	194
124	195
124	198
125	126
125	128
125	130
125	132
125	135
125	136
125	138
125	139
125	141
125	143
125	144
125	145
125	147
125	149
125	150
125	152
125	154
125	155
125	156
125	157
125	158
125	159
125	161
125	162
125	164
125	165
125	166
125	168
125	169
125	170
125	171
125	174
125	175
125	177
125	178
125	181
125	183
125	184
125	186
125	187
125	188
125	190
125	191
125	192
125	194
125	195
125	196
125	198
126	127
126	128
126	129
126	132
126	135
126	138
126	140
126	141
126	142
126	145
126	150
126	152
126	153
126	155
126	157
126	158
126	160
126	161
126	162
126	163
126	164
126	167
126	168
126	169
126	170
126	172
126	173
126	174
126	175
126	177
126	178
126	182
126	184
126	189
126	192
126	193
126	195
126	197
126	198
126	199
127	128
127	129
127	130
127	132
127	134
127	135
127	136
127	137
127	138
127	139
127	140
127	141
127	142
127	143
127	145
127	146
127	149
127	151
127	152
127	153
127	154
127	156
127	161
127	162
127	163
127	165
127	166
127	168
127	169
127	170
127	171
127	173
127	174
127	175
127	176
127	178
127	180
127	181
127	183
127	186
127	187
127	188
127	191
127	192
127	193
127	194
127	197
127	198
128	132
128	133
128	134
128	139
128	140
128	142
128	144
128	145
128	146
128	149
128	150
128	151
128	152
128	153
128	154
128	158
128	159
128	160
128	161
128	162
128	164
128	165
128	166
128	167
128	169
128	170
128	171
128	173
128	175
128	176
128	178
128	179
128	181
128	184
128	186
128	187
128	188
128	189
128	190
128	192
128	194
128	195
128	197
129	130
129	131
129	132
129	135
129	137
129	138
129	139
129	140
129	141
129	142
129	143
129	144
129	145
129	146
129	147
129	150
129	151
129	153
129	154
129	155
129	156
129	157
129	159
129	160
129	163
129	164
129	165
129	168
129	169
129	171
129	172
129	173
129	177
129	178
129	183
129	188
129	191
129	192
129	194
129	196
129	197
129	199
130	131
130	133
130	135
130	141
130	146
130	147
130	149
130	150
130	151
130	152
130	153
130	156
130	159
130	160
130	161
130	163
130	165
130	166
130	167
130	168
130	169
130	170
130	171
130	172
130	174
130	175
130	179
130	180
130	181
130	182
130	183
130	186
130	188
130	189
130	192
130	194
130	199
131	132
131	133
131	134
131	136
131	137
131	138
131	142
131	143
131	144
131	145
131	146
131	148
131	150
131	154
131	155
131	157
131	158
131	159
131	160
131	161
131	163
131	164
131	165
131	166
131	168
131	169
131	170
131	171
131	172
131	173
131	175
131	176
131	177
131	179
131	180
131	183
131	184
131	187
131	188
131	189
131	191
131	192
131	193
131	195
131	196
131	197
131	199
132	133
132	135
132	137
132	138
132	140
132	141
132	143
132	145
132	146
132	147
132	148
132	150
132	151
132	152
132	153
132	154
132	155
132	158
132	159
132	160
132	162
132	163
132	164
132	165
132	167
132	168
132	169
132	172
132	174
132	175
132	180
132	184
132	187
132	188
132	189
132	191
132	192
132	193
132	196
132	197
132	198
132	199
133	134
133	135
133	139
133	140
133	141
133	142
133	143
133	144
133	145
133	150
133	151
133	155
133	156
133	157
133	158
133	159
133	161
133	162
133	163
133	164
133	165
133	166
133	167
133	168
133	169
133	170
133	171
133	173
133	175
133	177
133	178
133	180
133	183
133	184
133	185
133	186
133	187
133	188
133	189
133	190
133	191
133	192
133	194
133	196
134	137
134	138
134	139
134	140
134	142
134	143
134	144
134	146
134	147
134	148
134	149
134	150
134	153
134	154
134	155
134	159
134	160
134	161
134	163
134	165
134	166
134	167
134	168
134	169
134	170
134	171
134	172
134	173
134	174
134	175
134	176
134	178
134	180
134	181
134	182
134	183
134	184
134	185
134	186
134	187
134	193
134	194
134	196
134	197
134	198
134	199
135	136
135	138
135	140
135	141
135	142
135	145
135	146
135	147
135	148
135	149
135	151
135	152
135	154
135	156
135	159
135	160
135	161
135	162
135	164
135	166
135	172
135	175
135	176
135	177
135	178
135	179
135	181
135	182
135	183
135	184
135	185
135	186
135	188
135	189
135	190
135	191
135	194
135	196
135	197
135	199
136	143
136	144
136	145
136	147
136	148
136	151
136	152
136	153
136	154
136	155
136	158
136	162
136	165
136	166
136	167
136	168
136	169
136	173
136	174
136	176
136	178
136	184
136	185
136	186
136	188
136	190
136	194
136	196
136	197
136	199
137	138
137	139
137	140
137	141
137	142
137	144
137	148
137	149
137	153
137	154
137	159
137	160
137	161
137	163
137	164
137	165
137	167
137	169
137	170
137	171
137	172
137	174
137	176
137	177
137	178
137	179
137	181
137	184
137	185
137	187
137	189
137	190
137	191
137	193
137	195
137	196
137	198
137	199
138	139
138	140
138	141
138	142
138	143
138	152
138	154
138	155
138	156
138	160
138	161
138	163
138	165
138	169
138	170
138	171
138	173
138	176
138	177
138	178
138	179
138	180
138	182
138	184
138	185
138	186
138	191
138	192
138	193
138	194
138	195
138	196
138	197
139	140
139	141
139	144
139	147
139	148
139	150
139	151
139	152
139	155
139	156
139	162
139	163
139	164
139	165
139	169
139	171
139	173
139	176
139	178
139	181
139	183
139	185
139	186
139	189
139	190
139	192
139	196
139	198
139	199
140	141
140	142
140	144
140	145
140	148
140	149
140	150
140	152
140	154
140	156
140	157
140	158
140	159
140	160
140	161
140	162
140	163
140	164
140	165
140	166
140	170
140	171
140	172
140	173
140	174
140	175
140	176
140	178
140	179
140	181
140	182
140	183
140	184
140	185
140	187
140	188
140	190
140	192
140	194
140	195
140	197
141	145
141	146
141	147
141	148
141	149
141	150
141	151
141	152
141	153
141	154
141	157
141	159
141	161
141	166
141	167
141	168
141	169
141	170
141	171
141	172
141	173
141	174
141	176
141	178
141	181
141	182
141	183
141	185
141	186
141	187
141	189
141	190
141	192
141	193
141	195
141	196
141	199
142	143
142	144
142	145
142	147
142	149
142	152
142	153
142	156
142	158
142	162
142	163
142	166
142	168
142	169
142	170
142	171
142	172
142	174
142	175
142	176
142	178
142	180
142	181
142	184
142	185
142	186
142	187
142	188
142	190
142	193
142	194
142	195
142	198
142	199
143	144
143	147
143	148
143	149
143	150
143	151
143	152
143	153
143	154
143	155
143	157
143	160
143	161
143	162
143	163
143	165
143	166
143	167
143	168
143	170
143	171
143	172
143	173
143	177
143	180
143	182
143	186
143	189
143	191
143	194
143	196
143	197
143	199
144	146
144	147
144	148
144	149
144	151
144	152
144	153
144	157
144	159
144	160
144	161
144	162
144	163
144	165
144	166
144	168
144	169
144	170
144	172
144	173
144	174
144	175
144	176
144	179
144	185
144	189
144	192
144	193
144	194
144	195
144	199
145	146
145	147
145	148
145	151
145	157
145	158
145	159
145	162
145	163
145	165
145	168
145	169
145	170
145	171
145	174
145	175
145	176
145	177
145	179
145	180
145	181
145	182
145	183
145	184
145	189
145	191
145	193
145	194
145	195
145	198
145	199
146	147
146	149
146	150
146	151
146	152
146	155
146	156
146	158
146	161
146	162
146	163
146	164
146	165
146	166
146	171
146	172
146	173
146	174
146	175
146	176
146	178
146	179
146	180
146	182
146	186
146	188
146	189
146	190
146	191
146	192
146	193
146	194
146	195
146	196
146	198
147	148
147	149
147	150
147	151
147	152
147	154
147	156
147	159
147	160
147	161
147	163
147	165
147	166
147	168
147	170
147	172
147	173
147	175
147	177
147	178
147	179
147	180
147	181
147	182
147	183
147	184
147	185
147	188
147	190
147	191
147	192
147	193
147	194
147	197
148	150
148	152
148	153
148	154
148	155
148	158
148	159
148	161
148	162
148	164
148	166
148	169
148	170
148	171
148	172
148	174
148	175
148	177
148	179
148	182
148	184
148	186
148	191
148	194
148	195
148	196
148	197
148	199
149	151
149	152
149	154
149	155
149	157
149	158
149	160
149	161
149	162
149	165
149	166
149	167
149	168
149	169
149	170
149	171
149	175
149	176
149	177
149	179
149	180
149	183
149	184
149	186
149	187
149	188
149	190
149	191
149	193
149	196
149	197
149	198
150	151
150	152
150	153
150	154
150	156
150	159
150	162
150	163
150	164
150	165
150	167
150	170
150	171
150	172
150	173
150	174
150	176
150	179
150	181
150	184
150	185
150	186
150	187
150	189
150	190
150	192
150	193
150	194
150	195
150	196
150	198
151	153
151	155
151	158
151	159
151	161
151	162
151	167
151	168
151	169
151	170
151	174
151	177
151	178
151	181
151	182
151	183
151	186
151	187
151	188
151	189
151	190
151	191
151	192
151	193
152	154
152	155
152	158
152	159
152	160
152	161
152	162
152	163
152	165
152	166
152	167
152	168
152	170
152	176
152	180
152	184
152	188
152	189
152	190
152	192
152	195
152	197
153	154
153	155
153	158
153	159
153	160
153	161
153	162
153	164
153	167
153	168
153	171
153	173
153	174
153	178
153	179
153	181
153	182
153	184
153	186
153	189
153	190
153	191
153	192
153	193
153	194
153	196
153	197
153	198
153	199
154	155
154	158
154	159
154	160
154	161
154	163
154	164
154	165
154	166
154	169
154	171
154	172
154	173
154	174
154	176
154	178
154	180
154	181
154	185
154	187
154	188
154	189
154	190
154	192
154	194
154	195
154	196
154	197
154	198
155	156
155	157
155	160
155	161
155	162
155	163
155	164
155	165
155	167
155	168
155	169
155	170
155	173
155	174
155	175
155	176
155	180
155	182
155	183
155	184
155	185
155	186
155	187
155	189
155	191
155	192
155	193
155	196
155	197
155	198
156	160
156	161
156	162
156	163
156	166
156	167
156	169
156	170
156	171
156	172
156	173
156	175
156	177
156	178
156	179
156	181
156	182
156	183
156	186
156	188
156	189
156	190
156	191
156	192
156	193
156	195
156	196
156	197
156	198
157	159
157	161
157	162
157	164
157	165
157	167
157	168
157	170
157	172
157	173
157	176
157	177
157	178
157	181
157	182
157	183
157	184
157	188
157	190
157	191
157	192
157	193
157	196
157	198
158	159
158	160
158	161
158	162
158	164
158	165
158	166
158	167
158	173
158	174
158	175
158	177
158	178
158	180
158	181
158	182
158	184
158	185
158	186
158	187
158	190
158	192
158	195
158	196
158	197
158	199
159	160
159	162
159	163
159	165
159	167
159	168
159	169
159	170
159	172
159	173
159	174
159	177
159	178
159	179
159	180
159	182
159	183
159	184
159	185
159	187
159	188
159	189
159	191
159	192
159	193
159	194
159	196
159	197
159	198
159	199
160	161
160	165
160	167
160	168
160	172
160	173
160	174
160	178
160	179
160	180
160	181
160	182
160	184
160	185
160	186
160	187
160	189
160	190
160	194
160	197
160	198
160	199
161	162
161	163
161	164
161	165
161	167
161	168
161	169
161	170
161	171
161	173
161	174
161	176
161	178
161	180
161	181
161	183
161	185
161	187
161	188
161	190
161	191
161	192
161	193
161	194
161	195
161	196
161	197
161	198
162	163
162	164
162	165
162	167
162	169
162	170
162	171
162	172
162	174
162	175
162	177
162	178
162	179
162	183
162	184
162	185
162	186
162	187
162	188
162	189
162	190
162	192
162	197
163	165
163	166
163	167
163	169
163	172
163	173
163	178
163	180
163	181
163	184
163	185
163	186
163	188
163	189
163	190
163	193
163	196
163	197
163	199
164	167
164	168
164	169
164	170
164	171
164	172
164	173
164	174
164	175
164	176
164	177
164	178
164	180
164	181
164	182
164	183
164	186
164	187
164	188
164	189
164	190
164	193
164	194
164	195
164	196
164	197
164	198
164	199
165	166
165	168
165	171
165	173
165	175
165	176
165	179
165	182
165	183
165	185
165	188
165	189
165	190
165	191
165	192
165	193
165	194
165	197
165	198
165	199
166	167
166	168
166	169
166	171
166	172
166	175
166	178
166	179
166	180
166	183
166	185
166	186
166	188
166	189
166	193
166	194
166	195
166	196
166	197
166	198
166	199
167	169
167	170
167	171
167	173
167	175
167	176
167	180
167	181
167	182
167	183
167	187
167	188
167	190
167	193
167	194
167	195
167	196
167	198
168	169
168	170
168	172
168	174
168	175
168	176
168	179
168	181
168	182
168	183
168	184
168	185
168	186
168	188
168	189
168	190
168	191
168	194
168	195
168	196
168	197
168	198
169	170
169	171
169	172
169	174
169	175
169	177
169	178
169	182
169	183
169	185
169	187
169	188
169	190
169	191
169	192
169	193
169	198
170	172
170	173
170	176
170	177
170	179
170	180
170	181
170	185
170	186
170	189
170	191
170	194
170	197
170	199
171	173
171	175
171	179
171	180
171	181
171	183
171	184
171	186
171	187
171	188
171	189
171	190
171	191
171	192
171	194
171	197
172	173
172	174
172	176
172	177
172	178
172	179
172	180
172	182
172	184
172	187
172	189
172	191
172	192
172	195
172	196
173	174
173	175
173	176
173	178
173	179
173	180
173	181
173	184
173	185
173	186
173	187
173	188
173	190
173	191
173	193
173	194
173	195
173	197
173	198
174	175
174	176
174	178
174	179
174	181
174	182
174	183
174	187
174	188
174	189
174	190
174	191
174	192
174	193
174	194
174	195
174	196
174	198
174	199
175	176
175	177
175	179
175	180
175	182
175	184
175	185
175	187
175	189
175	191
175	193
175	194
175	195
175	196
175	198
175	199
176	179
176	180
176	181
176	182
176	185
176	186
176	191
176	192
176	193
176	195
176	196
176	198
176	199
177	178
177	179
177	180
177	182
177	184
177	185
177	186
177	187
177	188
177	189
177	190
177	191
177	192
177	193
177	197
177	198
177	199
178	181
178	182
178	183
178	185
178	186
178	188
178	189
178	190
178	191
178	192
178	193
178	195
178	196
178	197
178	198
178	199
179	180
179	181
179	182
179	184
179	187
179	189
179	190
179	191
179	192
179	193
179	195
179	197
179	198
179	199
180	182
180	183
180	185
180	186
180	187
180	188
180	189
180	190
180	192
180	193
180	194
180	197
180	198
181	182
181	184
181	188
181	189
181	190
181	192
181	194
181	195
181	196
181	197
182	184
182	188
182	189
182	190
182	191
182	192
182	193
182	194
182	195
182	196
182	197
182	199
183	185
183	186
183	190
183	193
183	194
183	196
183	198
183	199
184	185
184	186
184	190
184	191
184	192
184	193
184	194
184	195
184	197
185	188
185	191
185	193
185	194
185	195
185	197
185	198
186	187
186	190
186	191
186	198
186	199
187	191
187	192
187	195
187	196
187	198
188	189
188	190
188	193
188	194
188	195
188	196
188	197
188	199
189	190
189	192
189	195
189	196
189	197
189	199
190	192
190	193
190	195
190	196
190	197
190	198
190	199
191	192
191	193
191	194
191	197
191	198
192	193
192	194
192	196
192	198
192	199
193	195
193	196
193	197
193	198
193	199
194	195
194	196
194	198
195	199
196	197
196	198
196	199
197	198
197	199
198	199
